880;2016;SRA;96851110-6;INDRA SISTEMAS CHILE S.A.                         ;FACTURA;48094;22-04-2016;CUOTA 5  6 Y 7 OCT- NOV -DIC PROCEDIEMIENTO REMUNERACIONES;49984430;22-04-2016;22;Archivado en contabilidad;1747
931;2016;SRA;16558483-K;RODRIGO ANDRES ALDAY RODRIGUEZ;FACTURA;3284;04-05-2016;ADQUISICION DE INSUMOS OFICINA;69998;04-05-2016;22;Archivado en contabilidad;1750
954;2016;SRA;96851110-6;INDRA SISTEMAS CHILE S.A.                         ;NOTA DE CREDITO;1337;27-04-2016;ANULA FACTURA N°48094 CON NOTA DE CREDITO N°1337;-49984430;06-05-2016;22;Archivado en Contabilidad;1748
994;2016;SRA;16558483-K;RODRIGO ANDRES ALDAY RODRIGUEZ;NOTA DE CREDITO;321;10-05-2016;ANULA FACTURA Nº3284;-69998;10-05-2016;22;Archivado en contabilidad;1751
280;2015;SRA;96689970-0;COMPUTACION INTEGRAL S.A.                         ;Factura ;9360;18-02-2015;MEMORIA HP 8GB 2RX8;990642;19-02-2015;22;Devengada;794
1002;2015;SRA;96689970-0;COMPUTACION INTEGRAL S.A.                         ;Nota de Debito;37;20-05-2015;AUMENTA A Factura  9360 CON NOTA DE DEBITO Nº37;7947;16-06-2015;22;Devengada;794
1269;2015;SRA;96689970-0;COMPUTACION INTEGRAL S.A.                         ;NOta de Credito;996;22-07-2015;REBAJA Factura  Nº9360 CON NOta de Credito Nº996;-2645;27-07-2015;22;Devengada;794
1489;2015;SRA;10301679-7;HERNAN ANDRES CANCINO TAPIA                       ;Factura ;2389;20-08-2015;JORNADA SUBCOMISIONES DE CARDIOLOGIA DE ALTA COMPLEJIDAD;321300;27-08-2015;22;Devengada;932
1815;2015;SRA;78973230-2;TRANSPORTES TRANSIBERICA LIMITADA;Factura ;1972;30-09-2015;TRASLADO DE FUNCIONARIOS HOSPITALES ILLAPEL Y SALAMANCA;899300;15-10-2015;22;Devengada;703
1816;2015;SRA;78973230-2;TRANSPORTES TRANSIBERICA LIMITADA;Factura ;1971;30-09-2015;TRASLADO FUNCIONARIOS CONTEXTO IMPLEMENTAR ESTRATEGIAS DE EQUIPOS MOVILES HOSPITAL QUINTERO;414000;15-10-2015;22;Devengada;704
1865;2015;SRA;96587150-0;HOTEL NIPPON S.A.                                 ;Factura ;6034;19-10-2015;REUNIONES DEL MARCO REGULATORIO 11 AGOSTO;115807;23-10-2015;22;Devengada;763
1930;2015;SRA;78159800-3;INTEGRADORES DE TECNOLOGIA Y SISTEMAS S. A.       ;Factura ;4478;28-10-2015;SERVICIO DE ARRIENDO DE COMPUTADORES CUOTA 19 DE 36  MES OCTUBRE;248816;29-10-2015;22;Devengada;801
2127;2015;SRA;76302113-0;TRANSPORTES LOGISTICOS LIMITADA;Factura ;1554;19-11-2015;SERVICIO DE TRASLADO Y MUDANZA DEPTO DE CALIDAD Y FORMACION ;2154264;24-11-2015;22;Devengada;1087
2132;2015;SRA;77043750-4;GESTION SUR LIMITADA;Factura ;2521;23-11-2015;JORNADA CANCER BIO-BIO;491994;24-11-2015;22;Devengada;976
2134;2015;SRA;86731200-5;QUINTEC CHILE S.A;Factura ;35800;24-11-2015;PRORROGA DEL CONTRATO DE PRESENTACION DE SERVICIOS IMPLEMENTACION OPERACIÓN SOPORTE Y MANTENCION DEL REGUISTRO NACIONAL DE LISTA DE ESPERA ;19899751;26-11-2015;22;Devengada;1050
2142;2015;SRA;78973230-2;TRANSPORTES TRANSIBERICA LIMITADA;Factura ;2334;26-11-2015;SERVICIO DE TRASLADO PROFECIONAL HOSPITAL QUINTERO OPERATIVO MOVIL;386400;26-11-2015;22;Devengada;1212
2169;2015;SRA;76338095-5;HOTELERA EL CORAZON SPA;Factura ;220;30-11-2015;JORNADA DE EVALUACION BALANCE Y CIERRE DEL EJERCICIO PRESUPUESTARIO;502498;01-12-2015;22;Devengada;747
2217;2015;SRA;86731200-5;QUINTEC CHILE S.A;Nota de Debito;33;04-12-2015;AUMENTA Factura  N°35800 CON NOTA DE DEBITO N°33;174;04-12-2015;22;Devengada;1051
2283;2015;SRA;78865110-4;MARINA HOTELES LTDA;Factura ;17085;27-11-2015;JORNADA CANCER VIÑA DEL MAR;2527517;14-12-2015;22;Devengada;1215
2324;2015;SRA;76049667-7;HOTEL MANQUEHUE S.A;Factura ;2346;18-12-2015;JORNADA MESA DE TRABAJO CON COLEGIO MEDICO;879611;18-12-2015;22;Devengada;1371
2415;2015;SRA;79536650-4;SOCIEDAD AGENCIA DE COMPRAS INTERNACIONALES Y NACIONALES LIMITADA;Factura ;5734;23-12-2015;SERVICIO DE TRASLADO DE TEJIDOS Y ORGANOS MES NOVIEMBRE 2015;1113840;24-12-2015;22;Devengada;924
2419;2015;SRA;76070713-9;MP SYSTEM CHILE LIMITADA;Factura ;292;12-11-2015;SOFWARE DE GESTION DE MANTENIMIENTO PARA EL HRC;18448551;23-12-2015;22;Devengada;966
2420;2015;SRA;76070713-9;MP SYSTEM CHILE LIMITADA;NOta de Credito;9;10-12-2015;SOFWARE DE GESTION DE MANTENIMIENTO PARA EL HOSPITAL COYHAIQUE;-6728;23-12-2015;22;Devengada;970
2429;2015;SRA;96981670-9;INGENIERIA DEL CONOCIMIENTO S.A;Factura ;817;28-12-2015;MANTENIMIENTO Y REPARACIONES CORTINA ENRROLLABLE;134470;28-12-2015;22;Devengada;795
2436;2015;SRA;99017000-2;RSA SEGUROS CHILE S.A.;Factura ;3372449;29-12-2015;CUOTA 1-1 PRIMA;325468;30-12-2015;22;Devengada;755
2443;2015;SRA;76132093-9;SISTEMAS EXPERTOS E INGENIERIA DE SOFTWARE LIMITADA;Factura ;281;20-11-2015;ADQUISICION DE SISTEMA INFORMATICO DE GESTION EQM;3428116;30-12-2015;29;Devengada;1138
2445;2015;SRA;99511100-4;HOTELERA SAN FRANCISCO S.A.                       ;Factura ;19030;22-12-2015;REUNION CON AGRUPACION DE MEDICOS GENERALES DE ZONA ;681753;30-12-2015;22;Devengada;748
2477;2015;SRA;76049667-7;HOTEL MANQUEHUE S.A;Factura ;2467;31-12-2015;JORNADA DEPTO GES Y REDES DE ALTA COMPLEJIDAD;883756;31-12-2015;22;Devengada;1684
2479;2015;SRA;96851110-6;INDRA SISTEMAS CHILE S.A.                         ;Factura ;43024;30-12-2015;PROCESAMIENTO DE REMUNERACIONES DEL MES DE MAYO 2015;594147;31-12-2015;22;Devengada;1391
2480;2015;SRA;96851110-6;INDRA SISTEMAS CHILE S.A.                         ;Factura ;43068;30-12-2015;PROCESAMIENTO DE REMUNERACIONES DEL MES DE JUNIO 2015;593267;31-12-2015;22;Devengada;1398
2481;2015;SRA;96851110-6;INDRA SISTEMAS CHILE S.A.                         ;Factura ;43145;30-12-2015;PROCESAMIENTO DE REMUNERACIONES DEL MES DE AGOSTO 2015;591842;31-12-2015;22;Devengada;1388
2482;2015;SRA;96851110-6;INDRA SISTEMAS CHILE S.A.                         ;Factura ;43103;30-12-2015;PROCESAMIENTO DE REMUNERACIONES DEL MES DE JULIO 2015;597116;31-12-2015;22;Devengada;1394
2483;2015;SRA;96851110-6;INDRA SISTEMAS CHILE S.A.                         ;Factura ;43215;30-12-2015;PROCESAMIENTO DE REMUNERACIONES DEL MES DE OCTUBRE 2015;606331;31-12-2015;22;Devengada;1389
2484;2015;SRA;96851110-6;INDRA SISTEMAS CHILE S.A.                         ;Factura ;43180;30-12-1899;PROCESAMIENTO DE REMUNERACIONES DEL MES DE SEPTIEMBRE 2015;599054;31-12-2015;22;Devengada;1399
14;2016;SRA;78973230-2;TRANSPORTES TRANSIBERICA LIMITADA;FACTURA;2715;31-12-2015;TRASLADO DE PASAJEROS JORNADA DIGERA;349600;07-01-2016;22;Devengada;916
16;2016;SRA;76086277-0;INVERSIONES MARIA CRISTINA CANINO REYES E.I.R.L.;FACTURA;501;08-01-2016;JORNADA MEJORAS MODULO DE HONORARIOS ;710356;08-01-2016;22;Devengada;762
17;2016;SRA;76061008-9;COMERCIAL 3 ARIES LIMITADA;FACTURA;13325;31-12-2015;MATERIALES DE OFICINA PARA CURSOS Y JORNADAS DE FORMACION GABINETE;270859;08-01-2016;22;Devengada;764
23;2016;SRA;77495830-4;INVERSIONES Y  RENTAS LOS CEDROS LIMITADA;FACTURA;3732;07-01-2016;ADQUISICION DE PASAJES TRASLADO DE PROCURAMIENTO DE ORGANOS ;3600000;13-01-2016;22;Devengada;928
24;2016;SRA;76132093-9;SISTEMAS EXPERTOS E INGENIERIA DE SOFTWARE LIMITADA;FACTURA;312;13-01-2016;SISTEMA INFORMATICO DE GESTION DE EQUIPAMIENTO MEDICO PARA HOSPITAL SAN BORJA ARRIARAN;20490130;13-01-2016;;Devengada;
25;2016;SRA;76132093-9;SISTEMAS EXPERTOS E INGENIERIA DE SOFTWARE LIMITADA;NOTA DE CREDITO ;26;13-01-2016;ANULA FACTURA N°302 CON NOTA DE CREDITO N°26;-20490130;13-01-2016;;Devengada;
35;2016;SRA;13027794-2;CESAR MANQUEL CARRASCO;REEMBOLSO;6709;31-12-2015;REEMBOLSO DE PASAJES TRASLADO A CAUQUENES;31568;31-12-2015;ADM DE FONDO;Devengada;
36;2016;SRA;78080940-K;AEROTRANSPORTES ARAUCANIA LIMITADA;NOTA DE CREDITO ;34;23-12-2015;ANULA FACTURA N°164 CON NOTA DE CREDITO N°34;-10499000;18-01-2016;22;Devengada;1308
38;2016;SRA;96511350-9;HOTELERA Y TURISMO S.A;FACTURA;37198;12-01-2016;JORNADA NACIONAL DE SALUD MENTAL;16546751;14-01-2016;22;Devengada;1375
39;2016;SRA;76719470-6;INTERGROUPE S.A.;FACTURA;1495;13-01-2016;ADQUISCION DE MOBILIARIO;3933406;14-01-2016;29;Devengada;971
42;2016;SRA;99511100-4;HOTELERA SAN FRANCISCO S.A;FACTURA;19053;23-12-2015;JORNADA DE PLANIFICACION;1009482;15-01-2016;22;Devengada;1136
51;2016;SRA;78159800-3;INTEGRADORES DE TECNOLOGIA Y SISTEMAS SA;FACTURA;5066;15-01-2016;CUOTA 18 DE 36 SERVICIO DE ARRIENDO ALL IN ONE HP COMPAQ PRO 4300;578539;19-01-2016;22;Devengada;1302
52;2016;SRA;96587150-0;HOTEL NIPPON S.A.;NOTA DE CREDITO ;529;19-01-2016;CORRIGE DETALLE DE FACTURA N°6034; -   ;19-01-2016;22;Devengada;
55;2016;SRA;78080940-K;AEROTRANSPORTES ARAUCANIA LIMITADA;FACTURA;216;21-01-2016;ADQUISICION DE PASAJES AEREOS;6899000;21-01-2016;22;Devengada;929
65;2016;SRA;99511100-4;HOTELERA SAN FRANCISCO S.A;FACTURA;19461;21-01-2016;JORNADA DE REPOSICION CONISS 2016;6129346;27-01-2016;22;Devengada;1024
79;2016;SRA;77279440-1;YANES Y GALLARDO LIMITADA ;FACTURA;1675;01-02-2016;LLAMADO A VIVA VOZ CONISS 2016;34513965;02-02-2016;22;Devengada;676
101;2016;SRA;99511100-4;HOTELERA SAN FRANCISCO S.A;FACTURA;19626;29-01-2016;JORNADA COMISION REVISORA CONEO;5082217;04-02-2016;22;Devengada;1108
102;2016;SRA;99511100-4;HOTELERA SAN FRANCISCO S.A;FACTURA;19597;29-01-2016;JORNADA COMISION TECNICA MEDICA EDF 28 DE ENERO 2016;832867;04-02-2016;22;Devengada;975
105;2016;SRA;76090634-4;GRAN PALACE SERVICIOS HOTELEROS LIMITADA;FACTURA;331;03-02-2016;ALMUERZOS PARTICIPANTES LLAMADOS A VIVA VOZ;347512;03-02-2016;22;Devengada;902
106;2016;SRA;96511350-9;HOTELERA Y TURISMO S.A;FACTURA;37448;04-02-2016;JORNADA CAPACITACION FORMADORA DE LOS SERVICIOS DE SALUD;707158;04-02-2016;;Devengada;
123;2016;SRA;77319960-4;COMERCIAL NUEVA COPIA LIMITADA;FACTURA;29030;04-02-2016;SERVICIO DE ARRIENDO DE MAQUINA FOTOCOPIADORA;571302;09-02-2016;22;Devengada;776
126;2016;SRA;96511350-9;HOTELERA Y TURISMO S.A;FACTURA;37448;04-02-2016;JORNADA CAPACIDAD FORMADORA DE LOS SERVICIOS DE SALUD;707158;09-02-2016;22;Devengada;993
129;2016;SRA;78080940-K;AEREOTRANSPORTES ARAUCANIA LIMITADA;FACTURA;234;10-02-2016;TRASLADO SANTIAGO - TALCA;6900000;10-02-2016;22;Devengada;1107
130;2016;SRA;78080940-K;AEREOTRANSPORTES ARAUCANIA LIMITADA;FACTURA;235;10-02-2016;TRASLADO SANTIAGO- CONCEPCION;3990000;10-02-2016;22;Devengada;1269
138;2016;SRA;78159800-3;INTEGRADORES DE TECNOLOGIA Y SISTEMAS SA;FACTURA;5234;12-02-2016;CUOTA 19 DE 36 ARRIENDO ALL IN ONE HP COMPAQ PRO 4300 INTER CORE ;578539;15-02-2016;22;Devengada;931
141;2016;SRA;78178530-k;ROLAND VORWERK Y CIA LTDA;Nota de Debito;53;11-11-2015;AUMENTA FACTURA N°20846;1636;16-02-2016;22;Devengada;945
142;2016;SRA;99511100-4;HOTELERA SAN FRANCISCO S.A;FACTURA;19743;11-02-2016;SERVICIO DE ARRIENDO DE SALON Y SERVICIOS CONEXOS PARA REALIZAR JORNADA COMISION REVISION CONE SS;10256290;16-02-2016;22;Devengada;977
149;2016;SRA;60503000-9;EMPRESAS DE CORREOS DE CHILE;FACTURA;182116;15-02-2016;SERVICIO DE DESPACHO DE CORRESPONDENCIA- NIVEL CENTRAL;92062;17-02-2016;22;Devengada;758
150;2016;SRA;60503000-9;EMPRESAS DE CORREOS DE CHILE;FACTURA;182117;15-02-2016;SERVICIO DE DESPACHO DE CORRESPONDENCIA- NIVEL CENTRAL;854525;17-02-2016;22;Devengada;759
151;2016;SRA;60503000-9;EMPRESAS DE CORREOS DE CHILE;FACTURA;182122;15-02-2016;SERVICIO DE DESPACHO DE CORRESPONDENCIA- NIVEL CENTRAL;894551;17-02-2016;22;Devengada;760
152;2016;SRA;60503000-9;EMPRESAS DE CORREOS DE CHILE;FACTURA;182123;15-02-2016;SERVICIO DE DESPACHO DE CORRESPONDENCIA- NIVEL CENTRAL;577349;17-02-2016;22;Devengada;761
155;2016;SRA;60501000-8;SUBSECRETARIA DEL INTERIOR;FACTURA;17347;29-01-2016;PUBLICACION DECRETO Nº150  153 y 154;1981007;18-02-2016;22;Devengada;778
156;2016;SRA;60501000-8;SUBSECRETARIA DEL INTERIOR;FACTURA;17348;29-01-2016;PUBLICACION DECRETO Nº152;129272;18-02-2016;22;Devengada;779
157;2016;SRA;60501000-8;SUBSECRETARIA DEL INTERIOR;FACTURA;17349;29-01-2016;PUBLICACION DECRETO Nº24;80358;18-02-2016;22;Devengada;780
161;2016;SRA;96783990-6;CYBERCENTER S.A.;FACTURA;38159;18-02-2016;SERVICIO DE CONTINUIDAD Y REFACTORIZACION DEL SISTEMA INTEGRADO DE DONACION Y TRANSPLANTE Y SU SISTEMA DE INTERPERATIBILIDAD SIDOT;3237300;18-02-2016;;Devengada;752
163;2016;SRA;99511100-4;HOTELERA SAN FRANCISCO S.A;FACTURA;19783;18-02-2016;JORNADA COMISION REPOSICION (CONCURSO NACIONAL DE ESPECIALIDADES ODONTOLOGICAS);4106318;19-02-2016;22;Devengada;1688
170;2016;SRA;76005173-K;INGENIERIA DE SOFTWARE PROACTIVEOFFICE Y CIA;FACTURA;929;22-02-2016;RENOVACION LICENCIAS PROACTIVE OFFICE;1185895;22-02-2016;22;Devengada;914
172;2016;SRA;99508950-5;TRANSPORTE PRIVADO ECOTRANS CHILE S.A;FACTURA;27293;17-02-2016;SERVICIO Y TRASLADO DE RADIO TAXI MES DICIEMBRE ;88350;22-02-2016;22;Devengada;774
173;2016;SRA;99508950-5;TRANSPORTE PRIVADO ECOTRANS CHILE S.A;FACTURA;27292;17-02-2016;SERVICIO Y TRASLADO DE RADIO TAXI MES DICIEMBRE ;1260430;22-02-2016;22;Devengada;767
174;2016;SRA;99508950-5;TRANSPORTE PRIVADO ECOTRANS CHILE S.A;FACTURA;27291;17-02-2016;SERVICIO Y TRASLADO DE RADIO TAXI MES DICIEMBRE ;1340130;22-02-2016;22;Devengada;765
175;2016;SRA;99508950-5;TRANSPORTE PRIVADO ECOTRANS CHILE S.A;FACTURA;27294;17-02-2016;SERVICIO Y TRASLADO DE RADIO TAXI MES DICIEMBRE ;805080;22-02-2016;22;Devengada;775
178;2016;SRA;78953430-6;GRAFHIKA COPY CENTER LTDA;FACTURA;3105;15-02-2016;SERVICO DE CONFECCION CREDENCIALES ;21963;22-02-2016;22;Devengada;746
179;2016;SRA;78953430-6;GRAFHIKA COPY CENTER LTDA;FACTURA;3104;15-02-2016;SERVICIO DE CONFECCION CREDENCIALES ;1666000;22-02-2016;22;Devengada;740
180;2016;SRA;78953430-6;GRAFHIKA COPY CENTER LTDA;FACTURA;3127;16-02-2016;SERVICIO DE IMPRESIÓN DE DOCUMENTOS ANILLADO Y ENCUADERNACION ;155904;22-02-2016;22;Devengada;745
181;2016;SRA;78953430-6;GRAFHIKA COPY CENTER LTDA;FACTURA;3139;17-02-2016;SERVICIO DE IMPRESIÓN DOCUMENTOS GUIAS Y TARJETAS DE PRESENTACION ;312803;22-02-2016;22;Devengada;743
182;2016;SRA;78953430-6;GRAFHIKA COPY CENTER LTDA;FACTURA;3140;17-02-2016;SERVICIO DE ANILLADO DE DOCUMENTOS ;3184;22-02-2016;22;Devengada;744
183;2016;SRA;78953430-6;GRAFHIKA COPY CENTER LTDA;FACTURA;3141;17-02-2016;SERVICIO DE ANILLADO DE DOCUMENTOS ;6378;22-02-2016;22;Devengada;741
184;2016;SRA;78953430-6;GRAFHIKA COPY CENTER LTDA;FACTURA;3142;17-02-2016;SERVICIO DE IMPRESIÓN DE CERTIFICADOS Y DOCUMENTOS ;55500;22-02-2016;22;Devengada;737
185;2016;SRA;78953430-6;GRAFHIKA COPY CENTER LTDA;FACTURA;3143;17-02-2016;SERVICIO DE IMPRESIÓN DE DOCUMENTOS  ;61669;22-02-2016;22;Devengada;742
186;2016;SRA;78953430-6;GRAFHIKA COPY CENTER LTDA;FACTURA;3144;17-02-2016;SERVICIO DE IMPRESIÓN DE DOCUMENTOS Y CERTIFICADOS ;66392;22-02-2016;22;Devengada;738
187;2016;SRA;78115670-1;PSICUS CONSULTORES PROFESIONALES LIMITADA;FACTURA;2976;25-01-2016;CONTRATACION PARA EL CONCURSO CONISS 2016 ;9790312;22-02-2016;22;Devengada;1064
188;2016;SRA;76052646-0;GESTION AUDIOVISUAL LIMITADA;FACTURA;295;22-02-2016;ADQUISICION DE KIT MOUSE Y TECLADO MICROSOFT 2000 INALAMBRICO SPA USB UNIDAD;27583;22-02-2016;22;Devengada;754
190;2016;SRA;76395665-2;ARTEC SPA;FACTURA;174;04-01-2016;GIRO SERVICIO PUBLICO DESPACHO URGENTE CASTELLON 0115 NUEVA IMPERIAL ;124996;23-02-2016;22;Devengada;1001
193;2016;SRA;78906980-8;COMERCIAL MUÑOZ Y COMPAÑÍA LIMITADA;FACTURA;43770;19-02-2016;ADQUISICION DE ARTICULOS DE ESCRITORIOS Y MATERIALES DE OFICINA ;46612;23-02-2016;22;Devengada;753
195;2016;SRA;99511100-4;HOTELERA SAN FRANCISCO S.A;FACTURA;19731;09-02-2016;SRA JORNADA GESTORES ES RISS 26 AL 27 DE ENERO 2016 SE PROCEDERA AL PAGO ENCONTRARSE EN ESTADO ACEPTADA ESTA OC.;6616270;23-02-2016;22;Devengada;1135
196;2016;SRA;92083000-5;DIMACOFI S.A.;FACTURA;96540;23-02-2016;ARRIENDO DE EQUIPOS MULTIFUNCIONALES DE IMPRESIÓN ;690907;23-02-2016;22;Devengada;777
197;2016;SRA;99508950-5;TRANSPORTE PRIVADO ECOTRANS CHILE S.A;FACTURA;27302;23-02-2016;SERVICIO Y TRASLADO DE RADIO TAXI MES DICIEMBRE ;228480;24-02-2016;22;Devengada;772
198;2016;SRA;81771100-6;HUMBERTO GARETTO E HIJOS LIMITADA;FACTURA;824258;22-02-2016;ADQUISICION DE 1 TIMBRE Y 2 FRASCO DE TINTA (NEGRO) PARA TIMBRE ;25758;24-02-2016;22;Devengada;702
199;2016;SRA;76482497-0;BANQUETERIA NACIONAL SPA;FACTURA;294;24-02-2016;SERVICIOS CONEXOS JORNADA IMPLEMENTACION DE PROGRAMAS DE RESOLUTIVIDAD EN RNLE-23 DE FEBRERO SALON ALMA ATTA.;193449;25-02-2016;22;Devengada;930
200;2016;SRA;99511100-4;HOTELERA SAN FRANCISCO S.A;FACTURA;18871;15-12-2015;OCTAVA JORNADA DE GESTORES EN RISS ;11856246;25-02-2016;22;Devengada;1227
202;2016;SRA;78159800-3;INTEGRADORES DE TECNOLOGIA Y SISTEMAS SA;FACTURA;5285;25-02-2016;REEMPLAZO DE EQUIPAMIENTO COMPUTACIONAL PROVENIENTE DE GRANDES COMPRAR ;214882503;26-02-2016;22;Devengada;701
203;2016;SRA;99511100-4;HOTELERA SAN FRANCISCO S.A;FACTURA;19809;23-02-2016;SERVICIO DE ARRIENDO DE SALON Y SERVICIOS CONEXOS PARA REALIZAR JORNADA COMISION REPOSICION CONESS DEL 16 AL 19 DE FEBRERO;5967386;26-02-2016;22;Devengada;1270
204;2016;SRA;99511100-4;HOTELERA SAN FRANCISCO S.A;FACTURA;19807;23-02-2016;SERVICIO DE ARRIENDO DE SALON Y SERVICIOS CONEXOS PARA REALIZAR JORNADA COMISION CONCURSO NP DENTISTAS DESDE EL 15 AL 19 DE FEBRERO DE 2016 ;4241504;26-02-2016;22;Devengada;1681
215;2016;SRA ;78973230-2;TRANSPORTE TRANSIBERICA LIMITADA ;FACTURA;2944;29-02-2016;SERVICIO DE TRASLADO 03 Y 05 DE FEBRERO JORNADA DE DIAGNOSTICO 2015 Y PLANIFICACION 2016;360100;01-03-2016;22;Devengada;1687
216;2016;SRA ;99511100-4;HOTELERA SAN FRANCISCO S.A ;NOTA DE CREDITO ;3774;29-01-2016;JORNADA DE REPOSICION CONISS 2016 ;6129346;01-03-2016;22;Devengada;1025
217;2016;SRA;96800570-7;CHILECTRA S.A.                                    ;BOLETA ;146332983;10-02-2016;CONSUMO BASICO DE ELECTRICIDAD J M DE LA BARRA 480 601 ;8700;01-03-2016;22;Devengada;485
218;2016;SRA;78080940-K;AEROTRANSPORTES ARAUCANIA LIMITADA;FACTURA;254;29-02-2016;PASAJES AEREOS;3750000;02-03-2016;22;Devengada;1137
219;2016;SRA;76018259-1;VIVANET LIMITADA;FACTURA;412;29-02-2016;ADQUISICION DE 40 PENDRIVES ;109566;02-03-2016;22;Devengada;808
300;2016;SRA;78953430-6;GRAFHIKA COPY CENTER LTDA;NOTA DE CREDITO ;132;29-02-2016;CORRIGE ORDEN DE COMPRA DE FACTURA 3104; -   ;02-03-2016;22;Devengada;
301;2016;SRA;78953430-6;GRAFHIKA COPY CENTER LTDA;NOTA DE CREDITO ;133;29-02-2016;CORRIGE ORDEN DE COMPRA DE FACTURA 3142; -   ;02-03-2016;22;Devengada;
302;2016;SRA ;78312060-7;COMERCIALIZADORA INTEGRAL ;FACTURA;390014;29-02-2016;SERVICIO DE ARRIENDO MAQUINA FOTOCOPIADORA PARA SUBSECRETARIA DE REDES ASISTENCIALES ;274892;02-03-2016;22;Devengada;947
303;2016;SRA;78312060-7;COMERCIALIZADORA INTEGRAL ;FACTURA;390035;01-03-2016;SERVICIO DE ARRIENDO MAQUINA FOTOCOPIADORA PARA SUBSECRETARIA DE REDES ASISTENCIALES ;82186;02-03-2016;22;Devengada;948
304;2016;SRA;80116100-6;BLANCO VIAJES LTDA;FACTURA;429578;29-02-2016;ADQUISICION DE PASAJES AEREOS;17013888;02-03-2016;22;Devengada;749
305;2016;SRA;81771100-6;HUMBERTO GARETTO E HIJOS LIMITADA;FACTURA ;825007;01-03-2016;ADQUISICION DE 1 TIMBRE COLOR ROJO Y 2 TINTAS COLOR NEGRO ;11572;03-03-2016;22;Devengada;806
306;2016;SRA;81771100-6;HUMBERTO GARETTO E HIJOS LIMITADA;FACTURA ;824893;29-02-2016;ADQUISICION DE 1 TIMBRE URGENTE   2 FECHADORES AUTOMATICOS   1 FOLIADOR ;61222;03-03-2016;22;Devengada;915
307;2016;SRA;77319960-4;COMERCIAL NUEVA COPIA LIMITADA;FACTURA ;29180;01-03-2016;ARRIENDO DE 1 FOTOCOPIADORA DIVISION SUB REDES ;173290;03-03-2016;22;Devengada;790
308;2016;SRA;77319960-4;COMERCIAL NUEVA COPIA LIMITADA;FACTURA ;29181;01-03-2016;ARRIENDO DE 1 FOTOCOPIADORA DIVISION SUB REDES ;186062;03-03-2016;22;Devengada;788
309;2016;SRA;77319690-4;COMERCIAL NUEVA COPIA LIMITADA;FACTURA ;29182;01-03-2016;ARRIENDO 2 FOTOCOPIADORAS DIVISION DIGEFI ;548197;03-03-2016;22;Devengada;789
400;2016;SRA;77319960-4;COMERCIAL NUEVA COPIA LIMITADA;FACTURA ;29183;01-03-2016;ARRIENDO FOTOCOPIADORA DIVISION INVERSIONES ;295739;03-03-2016;22;Devengada;766
401;2016;SRA;77319960-4;COMERCIAL NUEVA COPIA LIMITADA;FACTURA;29184;01-03-2016;ARRIENDO 1 FOTOCOPIADORA DIVISION SUB REDES ASISTENCIALE ;177787;03-03-2016;22;Devengada;792
402;2016;SRA;77319960-4;COMERCIAL NUEVA COPIA LIMITADA;FACTURA ;29185;01-03-2016;ARRIENDO 3 FOTOCOPIADORA DIVISION DIGEDEP;946369;03-03-2016;22;Devengada;1304
403;2016;SRA;77319960-4;COMERCIAL NUEVA COPIA LIMITADA;FACTURA ;29186;01-03-2016;ARRIENDO 3 FOTOCOPIADORA DIVISION SUB REDES ;804256;03-03-2016;22;Devengada;791
404;2016;SRA;78159800-3;INTEGRADORES DE TECNOLOGIA Y SISTEMAS S.A;FACTURA ;5290;29-02-2016;RENOVACION EQUIPAMIENTO COMPUTACIONAL PARA PROYECTO SIDRA ;314154534;03-03-2016;22;Devengada;925
405;2016;SRA;78159800-3;INTEGRADORES DE TECNOLOGIA Y SISTEMAS S.A;FACTURA;5300;29-02-2016;ARRIENDO 6 NOTEBOOK HP EN 36 MESES PROCESADOR INTEL ;248816;03-03-2016;22;Devengada;1089
406;2016;SRA;78159800-3;INTEGRADORES DE TECNOLOGIA Y SISTEMAS S.A;FACTURA ;5301;29-02-2016;ARRIENDO HP ENVY 15-J108LA NB PC ;629248;03-03-2016;22;Devengada;1093
407;2016;SRA;78159800-3;INTEGRADORES DE TECNOLOGIA Y SISTEMAS S.A ;FACTURA ;5310;29-02-2016;SERVICIO DE ARRIENDO WORKSTATION HP Z230 ;663888;03-03-2016;22;Devengada;969
408;2016;SRA;78159800-3;INTEGRADORES DE TECNOLOGIA Y SISTEMAS S.A;FACTURA ;5321;29-02-2016;SERVICIO DE ARRIENDO DE COMPUTADORES 36 MESES INTEL Y DISCO DURO ;335415;03-03-2016;22;Devengada;968
409;2016;SRA;78973230-2;TRANSPORTES TRANSIBERICA LIMITADA;FACTURA ;2961;29-02-2016;SERVICIO DE TRASLADO DE MENORES Y CUERPO DOCENTE ;1299500;04-03-2016;22;Devengada;994
500;2016;SRA;60501000-8;DIARIO OFICIAL ;FACTURA ;17865;16-02-2016;PUBLICACIONES DECRETO Nº27 Y 45 ;153729;04-03-2016;22;Devengada;786
501;2016;SRA;60501000-8;DIARIO OFICIAL ;FACTURA;17960;17-02-2016;PUBLICACIONES DECRETO Nº 148;122284;04-03-2016;22;Devengada;785
502;2016;SRA;60501000-8;DIARIO OFICIAL ;FACTURA;18855;29-02-2016;PUIBLICACIONES DECRETOS Nº 49 Y 50;118346;04-03-2016;22;Devengada;784
503;2016;SRA;60501000-8;DIARIO OFICIAL ;FACTURA ;18679;26-02-2016;PUBLICACIONES DECRETO Nº48 ;71007;04-03-2016;22;Devengada;783
504;2016;SRA;60501000-8;DIARIO OFICIAL ;FACTURA;18678;26-02-2016;PUBLICACIONES DECRETO Nº 46 Y 47 ;134125;04-03-2016;22;Devengada;782
505;2016;SRA;60501000-8;DIARIO OFICIAL ;FACTURA;18677;26-02-2016;PUBLICACIONES DECRETO Nº 01 ;63118;04-03-2016;22;Devengada;781
506;2016;SRA;76052646-0;GESTION AUDIOVISUAL LIMITADA;FACTURA;219;15-12-2015;ADQUISICION DE EQUIPOS VIDEO CONFERENCIA;14638512;07-03-2016;29;Devengada;1364
507;2016;SRA;99511100-4;HOTELERA SAN FRANCISCO S.A;FACTURA;19922;02-03-2016;SERVICIO DE SALON Y AMPLIFICACION JORNADA CONEO ;757255;07-03-2016;22;Devengada;1224
600;2016;SRA;76395665-2;ARTEC SPA ;FACTURA;258;04-03-2016;SERVICIO DE ARRIENDO MENSUAL EQUIPOS ARTEC ;124996;07-03-2016;22;Devengada;1743
601;2016;SRA;96807120-3;INTER-CON SEGURITY;FACTURA;5802;29-02-2016;SERVICIO SEGURIDAD MES DE FEBRERO DE 2016;4498329;07-03-2016;22;Devengada;996
602;2016;SRA;96783990-6;CYBERCENTER S.A.;FACTURA;38209;07-03-2016;SERVICIO DE CONTINUIDAD Y REFACTORIZACION DEL SISTEMA INTEGRADO DE DONACION Y TRANSPLANTE Y SU SISTEMA DE INTERPERATIBILIDAD SIDOT;3237300;07-03-2016;22;Devengada;927
603;2016;SRA;96783990-6;CYBERCENTER S.A.;FACTURA;38208;07-03-2016;SERVICIO DE CONTINUIDAD Y REFACTORIZACION DEL SISTEMA INTEGRADO DE DONACION Y TRANSPLANTE Y SU SISTEMA DE INTERPERATIBILIDAD SIDOT;3237300;07-03-2016;22;Devengada;926
604;2016;SRA;96556940-5;PROVEEDORES INTEGRALES PRISA S.A;FACTURA;8859089;07-03-2016;ADQUISICION DE CARTUCHOS IMPRESORAS EPSON ;56249;08-03-2016;22;Devengada;1267
605;2016;SRA;76404683-8;SOLUCIONES DE GESTION Y MANTENIMIENTO LIMITADA;FACTURA ;82;08-03-2016;SERVICIOS DE INSTALACION Y PROVISION DE PISO FOTOLAMINADO PARA LA SUBSECRETARIA DE REDES ASISTENCIALES ;994840;08-03-2016;22;Devengada;1083
606;2016;SRA;76383236-8;SOCIEDAD CONCESIONARIA METROPOLITANA DE SALUD S.A ;FACTURA;1;29-02-2016;OBRA CONCESIONADA HOSPITAL FELIX BULNES CORRESPONDIENTE AL PERIODO DE JULIO A OCTUBRE 2015;15475557699;09-03-2016;33;Devengada;722
608;2016;SRA;8315552-3;ALFREDO HERNAN MORALES GALVEZ;FONDO FIJO;787;10-03-2016;DEVENGA RENDICION DE FONDO FIJO 2016 A NOMBRE DE ALFREDO MORALES;100700;10-03-2016;22;Devengada;687
609;2016;SRA;9030307-4;EDUARDO ALFREDO SANCHEZ CARRIZO;FONDO FIJO;644;03-03-2016;DEVENGA RENDICION DE FONDO FIJO 2016 A NOMBRE DE EDUARDO SANCHEZ;79754;03-03-2016;22;Devengada;686
610;2016;SRA;69070100-6;TESORERO MUNICIPAL DE SANTIAGO;RENDICION;717;04-03-2016;RENDICION DE PERMISO DE CIRCULACION TESORERIA MINICIPAL DE SANTIAGO CORRESPONDIEMTE AÑO 2016;261093;04-03-2016;22;Devengada;683
611;2016;SRA;56004700-2;COMUNIDAD DE EDIFICIO JM DE LA BARRA;GASTOS COMUNES;844;11-03-2016;DEVENGA GASTOS COMUNES JM DE LA BARRA MES FEBRERO 2016;167312;11-03-2016;22;Devengada;682
612;2016;SRA;9906875-2;YUDY ZUÑIGA PAEZ;ARRIENDO;667;03-03-2016;ARRIENDO JM DE LA BARRA MES DE MARZO 2016;1673069;03-03-2016;22;Devengada;685
613;2016;SRA;76226615-6;INMOBILIARIA EL LITRE LTDA;ARRIENDO;702;03-03-2016;ARRIENDO DE INMOBILIARIA EL LITRE MES DE MARZO 2016;2112094;03-03-2016;22;Devengada;684
614;2016;SRA;61808000-5;AGUAS ANDINAS S.A;BOLETA ;79805449;24-03-2016;DISTRIBUCION DE AGUA POTABLE;19722;16-03-2016;22;Devengada;805
615;2016;SRA;61808000-5;AGUAS ANDINAS S.A;BOLETA;79805450;24-03-2016;DISTRIBUCION DE AGUA POTABLE;12552;16-03-2016;22;Devengada;804
616;2016;SRA;96800570-7;CHILECTRA S.A.                                    ;FACTURA;15082791;10-03-2016;DISTRIBUCION DE ELECTRICIDAD Y VENTA DE ENERGIA;299239;16-03-2016;22;Devengada;803
617;2016;SRA;96800570-7;CHILECTRA S.A.                                    ;FACTURA ;15082792;10-03-2016;DISTRIBUCION DE ELECTRICIDAD Y VENTA DE ENERGIA;282959;16-03-2016;22;Devengada;802
618;2016;SRA;78080940-K;AEROTRANSPORTES ARAUCANIA LIMITADA;FACTURA;272;16-03-2016;TRANSPORTE AEREOS ;3750000;16-03-2016;22;Devengada;1420
619;2016;SRA;96670840-9;DIMERC S.A;FACTURA;6462715;15-03-2016;EXPORTACION DE OFICINA CAFETERIA   Y ASEO ;40179;16-03-2016;22;Devengada;793
621;2016;SRA;70017820-k;CAMARA DE COMERCIO DE SANTIAGO A.G;FACTURA;81542;15-03-2016;JORNADA DE TRABAJO PRIORIDADES Y ENFASIS DE LA GESTION SANITARIA ;468953;15-03-2016;22;Devengada;1682
622;2016;SRA;76482497-0;BANQUETERIA NACIONAL SPA;FACTURA;316;14-03-2016;SERVICIOS CONEXOS PARA REALIZAR JORNADA COMISION NEUTROLOGOS ;193449;15-03-2016;22;Devengada;1214
623;2016;SRA;60501000-8;DIARIO OFICIAL ;FACTURA;19288;10-03-2016;EDICION DE PERIODICOS   REVISTAS Y PUBLICACIONES;122290;15-03-2016;22;Devengada;934
624;2016;SRA;78953430-6;GRAFHIKA COPY CENTER LTDA;FACTURA;3474;15-03-2016;IMPRESIÓN Y ANILLADO DE DOCUMENTOS ;31154;15-03-2016;22;Devengada;933
625;2016;SRA;61608700-2;CENABAST;FACTURA;77516;10-03-2016;COMISION SERVICIO COMPRA APOYO R. NACIDO PITREN MARZO 2016;18183438;14-03-2016;22;Devengada;811
626;2016;SRA;61608700-2;CENABAST;FACTURA;77517;10-03-2016;COMISION SERVICIO COMPRA APOYO R. NACIDO TEXTILES ZAHR MARZO 2016;12924721;14-03-2016;22;Devengada;814
627;2016;SRA;78966620-2;ROBERTO JIMENEZ E HIJOS LTDA;FACTURA;40;01-03-2016;COMERCIALIZADORA DE PRODUCTOS HOSPITALARIOS   CLINICAS Y ASESORIAS;306306000;14-03-2016;22;Devengada;812
628;2016;SRA;93049000-8;TEXTILES ZAHR S.A;FACTURA;5392;01-03-2016;TEXTILES PARA EL HOGAR IMPORTACIONES 0;430824030;14-03-2016;22;Devengada;815
629;2016;SRA;78966620-2;ROBERTO JIMENEZ E HIJOS LTDA;FACTURA;41;01-03-2016;COMERCIALIZADORA DE PRODUCTOS HOSPITALARIOS   CLINICAS Y ASESORIAS;299808600;14-03-2016;22;Devengada;813
630;2016;SRA;99511100-4;HOTELERA SAN FRANCISCO S.A;FACTURA;19973;08-03-2016;SERVICIO DE ARRIENDO DE SALON Y SERVICIO CONEXOS PARA REALIZAR JORNADA COMISION CONCURSO NP DENTISTAS;3522915;11-03-2016;22;Devengada;1678
631;2016;SRA;96806480-7;OLIDATA COMPUTER STORE ;FACTURA;30859;11-03-2016;REEMPLAZO DE EQUIPAMIENTO COMPUTACIONAL SS    SEREMIS Y NC;10261510;11-03-2016;22;Devengada;835
632;2016;SRA;96806840-7;OLIDATA COMPUTER STORE ;FACTURA;30858;11-03-2016;ARRIENDO DE EQUIPOS COMPUTACIONALES Y SERVICIO ASOCIADOS ;193792870;11-03-2016;22;Devengada;834
633;2016;SRA;92083000-5;DIMACOFI S.A.;FACTURA;96540;23-02-2016;DISTRIBUCION DE MAQUINAS DE OFICINA DISEÑO E IMPRESIÓN DE DOCUMENTOS;690907;14-03-2016;22;Devengada;777
634;2016;SRA;12609477-9;EDUARDO ARAGONES ;REEMBOLSO;968;18-03-2016;GESTIONAR EL PAGO POR REEMBOLSO DE TRANSFER   BENCINA   PEAJE   TAXI  PASAJES SR.EDUARDO ARAGONES;8700;18-03-2016;22;Devengada;827
635;2016;SRA;15644560-6;IGNACIO MORALES LORCA;REEMBOLSO;968;18-03-2016;GESTIONAR EL PAGO POR REEMBOLSO DE TRANSFER   BENCINA   PEAJE    TAXI   PASAJES SR.IGNACIO MORALES LORCA ;13951;18-03-2016;22;Devengada;828
636;2016;SRA;13456613-2; MATIAS TOBAR LAHOSA;REEMBOLSO ;968;18-03-2016;GESTIONAR EL PAGO POR REEMBOLSO DE TRANSFER   BENCINA PEAJE TAXI PASAJES SR. MATIAS TOBAR LAHOSA;54000;18-03-2016;22;Devengada;829
637;2016;SRA;7684108-K;PAOLA MANTEROLA OLIVA;REEMBOLSO;968;18-03-2016;GESTIONAR EL PAGO POR REEMBOLSO DE TRANSFER   BENCINA PEAJE TAXI PASAJES SRA.PAOLA MANTEROLA OLIVA ;8590;18/03/20216;22;Devengada;830
638;2016;SRA;8690195-1;LUCIA MARTINEZ LIZANA ;REEMBOLSO;968;18-03-2016;GESTIONAR EL PAGO POR REEMBOLSO DE TRANSFER   BENCINA PEAJE TAXI PASAJES SRA.LUCIA MARTINEZ LIZANA ;7000;18-03-2016;22;Devengada;831
639;2016;SRA;12871918-0;RENATO CALCAGNO SOTO;REEMBOLSO;968;18-03-2016;GESTIONAR EL PAGO POR REEMBOLSO DE TRANSFER   BENCINA PEAJE TAXI PASAJES SR. RENATO CALCAGNO SOTO ;18662;18-03-2016;22;Devengada;832
640;2016;SRA;15875370-7;MATIAS MOLINA OVALLE;REEMBOLSO;968;18-03-2016;GESTIONAR EL PAGO POR REEMBOLSO DE TRANSFER   BENCINA PEAJE TAXI PASAJES SR.MATIAS MOLINA OVALLE;8500;18-03-2016;22;Devengada;833
641;2016;SRA;13027794-2;CESAR MANQUEL CARRASCO;REEMBOLSO;968;18-03-2016;GESTIONAR EL PAGO POR REEMBOLSO DE TRANSFER   BENCINA PEAJE TAXI PASAJES SR.CESAR MANQUEL CARRASCO;38000;17-03-2016;22;Devengada;
644;2016;SRA;78159800-3;INTEGRADORES DE TECNOLOGIA Y SISTEMAS S.A;FACTURA;5418;16-03-2016;SERVICIO DE ARRIENDO ALL IN ONE HP COMPAG PRO 4300 AIO INTEL CORE I3-3220 ;578539;17-03-2016;22;Devengada;1225
645;2016;SRA;96556940-5;PROVEEDORES INTEGRALES PRISA S.A;FACTURA;8877348;17-03-2016;ADQUISICION DE ARTICULOS DE ESCRITORIOS Y MATERIALES DE OFICINA ;9086;17-03-2016;22;Devengada;848
646;2016;SRA;8690195-1;LUCIA MARTINEZ LIZANA ;REEMBOLSO;521;18-03-2016;GESTIONAR EL PAGO DE GASTO EFECTUADO SRA. LUCIA MARTINEZ LIZANA ;15300;23-02-2016;22;Devengada;750
647;2016;SRA;16473925-2;JASMIN PIZARRO OPAZO ;REEMBOLSO;793;18-03-2016;GESTIONAR EL PAGO POR REEMBOLSO DE BENCINA   PEAJE   TRANSFER TAXI   PASAJES SRA.JAZMIN PIZARRO OPAZO ;16550;10-03-2016;22;Devengada;793
648;2016;SRA;14065538-4;ESTEBAN URIBE VALERIA;REEMBOLSO;793;18-03-2016;GESTIONAR EL PAGO POR REEMBOLSO DE BENCINA   PEAJE   TRANSFER TAXI   PASAJES SR.ESTEBAN URIBE VALERIA;40700;10-03-2016;22;Devengada;751
649;2016;SRA;10384916-0;FRANCISCO DE LA MAZA ;REEMBOLSO;990;18-03-2016;GESTIONAR EL PAGO POR REEMBOLSOS DE PASAJES TRANSFER SR.FRANCISCO DE LA MAZA;87400;18-03-2016;22;Devengada;823
650;2016;SRA;8690195-1;LUCIA MARTINEZ LIZANA;REEMBOLSO;990;18-03-2016;GESTIONAR EL PAGO POR REEMBOLSOS DE PASAJES TRANSFER SRA.LUCIA MARTINEZ LIZANA;7000;18-03-2016;22;Devengada;824
651;2016;SRA;7684108-K;PAOLA MANTEROLA OLIVA;REEMBOLSO;990;18-03-2016;GESTIONAR EL PAGO POR REEMBOLSOS DE PASAJES TRANSFER SRA.PAOLA MANTEROLA OLIVA ;5300;18-03-2016;22;Devengada;817
652;2016;SRA;15427052-3;PABLO CANALES NAVARRO ;REEMBOLSO;990;18-03-2016;GESTIONAR EL PAGO POR REEMBOLSOS DE PASAJES TRANSFER SR.PABLO CANALES NAVARRO;25600;18-03-2016;22;Devengada;821
653;2016;SRA;9578239-6;ANA MARIA BARROUX ROJAS;REEMBOLSO;990;18-03-2016;GESTIONAR EL PAGO POR REEMBOLSOS DE PASAJES TRANSFER SRA.ANA MARIA BARROUX ROJAS;6500;18-03-2016;22;Devengada;826
654;2016;SRA;13027355-6;JORGE MAULME VIERTEL ;REEMBOLSO;990;18-03-2016;GESTIONAR EL PAGO POR REEMBOLSOS DE PASAJES TRANSFER SR.JORGE MAULME VIERTEL;14000;18-03-2016;22;Devengada;818
655;2016;SRA;7476186-0;MARGARITA SEPULVEDA DELLEPIANE;REEMBOLSO;990;18-03-2016;GESTIONAR EL PAGO POR REEMBOLSOS DE PASAJES TRANSFER SRA.MARGARITA SEPULVEDA DELLEPIANE;19000;18-03-2016;22;Devengada;819
656;2016;SRA;15875370-7;MATIAS MOLINA OVALLE;REEMBOLSO;990;18-03-2016;GESTIONAR EL PAGO POR REEMBOLSOS DE PASAJES TRANSFER SR.MATIAS MOLINA OVALLE;5000;18-03-2016;22;Devengada;822
657;2016;SRA;15427052-3;PABLO CANALES NAVARRO ;REEMBOLSO;990;18-03-2016;GESTIONAR EL PAGO POR REEMBOLSOS DE PASAJES TRANSFER SR.PABLO CANALES NAVARRO;25600;18-03-2016;22;Devengada;820
658;2016;SRA;12526059-4;BENJAMIN ROCHA DURAN;REEMBOLSO;1001;18-03-2016;REEMBOLSO DE  BENJAMIN ROCHA DURAN TRASLADO A PUERTO MONTT;48600;18-03-2016;22;Devengada;940
659;2016;SRA;10147106-3;ROBERTO MUÑOZ BUSTOS;REEMBOLSO;1001;18-03-2016;REEMBOLSO DE ROBERTO MUÑOZ BUSTOS TRASLADO A CONCEPCION;6000;18-03-2016;22;Devengada;939
660;2016;SRA;96556940-5;PROVEEDORES INTEGRALES PRISA S.A;FACTURA;8877343;17-03-2016;ADQUISICION DE 6 CAJAS DE CORCHETES BOSTITCH;14437;18-03-2016;22;Devengada;935
661;2016;SRA;96800570-7;CHILECTRA S.A.                                    ;FACTURA;147917612;10-03-2016;CONSUMO DE ELECTRICIDAD JM DE LA BARRA 480 601;150300;18-03-2016;22;Devengada;906
662;2016;SRA;60501000-8;SUBSECRETARIA DEL INTERIOR;FACTURA;19456;15-03-2016;PUBLICIDAD DECRETO N°67;90732;18-03-2016;22;Devengada;949
663;2016;SRA;8350616-4;RODRIGO CARAVANTES FUENTES;REEMBOLSO;1003;21-03-2016;REEMBOLSO DE  RODRIGO CARAVANTES FUENTES TRASLADO A ARICA;32000;21-03-2016;22;Devengada;936
664;2016;SRA;8893449-0;PABLO DURAN VALENZUELA ;REEMBOLSO;989;18-03-2016;REEMBOLSO DE  PABLO DURAN VALNZUELA TRASLADO A OSORNO-ANTOFAGASTA;31000;18-03-2016;22;Devengada;937
666;2016;SRA;10793089-2;CLAUDIA GODOY CUBILLOS;REEMBOLSO;989;18-03-2016;REEMBOLSO DE  CLAUDIA GODOY CUBILLOS TRASLADO A VALDIVIA;7000;18-03-2016;22;Devengada;938
668;2016;SRA;77279440-1;YANES Y GALLARDO LIMITADA ;FACTURA;1684;10-03-2016;JORNADA PLANIFICACION DE NAVEGACION PARA EL EJERCITO 2016;3637771;10-03-2016;22;Devengada;1452
669;2016;SRA;76005173-K;INGENIERIA DE SOFWARE PROACTIVEOFFICE Y CIA LTDA;FACTURA ;954;10-03-2016;LICENCIAS USUARIOS SISTEMAS INDICADORES;1190238;10-03-2016;22;Devengada;1709
670;2016;SRA;96502540-5;STUEDEMANN S.A;FACTURA ;46546;04-03-2016;SERVICIO DE ARRIENDO EQUIPO PLOTTER MES MARZO 2016;234589;10-03-2016;22;Devengada;946
671;2016;SRA;99508950-5;TRANSPORTE PRIVADO ECOTRANS CHILE S.A;FACTURA ;27530;17-03-2016;SERVICIO DE TRASLADO DE PERSONAL;10300;21-03-2016;22;Devengada;956
672;2016;SRA;99508950-5;TRANSPORTE PRIVADO ECOTRANS CHILE S.A;FACTURA ;27535;17-03-2016;SERVICIO DE TRASLADO DE PERSONAL;445710;21-03-2016;22;Devengada;957
673;2016;SRA;99508950-5;TRANSPORTE PRIVADO ECOTRANS CHILE S.A;FACTURA ;27532;17-03-2016;SERVICIO DE TRASLADO DE PERSONAL;408850;21-03-2016;22;Devengada;958
674;2016;SRA;99508950-5;TRANSPORTE PRIVADO ECOTRANS CHILE S.A;FACTURA ;27536;17-03-2016;SERVICIO DE TRASLADO DE PERSONAL;140070;21-03-2016;22;Devengada;959
675;2016;SRA;99508950-5;TRANSPORTE PRIVADO ECOTRANS CHILE S.A;FACTURA ;27537;17-03-2016;SERVICIO DE TRASLADO DE PERSONAL;352500;21-03-2016;22;Devengada;960
676;2016;SRA;99508950-5;TRANSPORTE PRIVADO ECOTRANS CHILE S.A;FACTURA ;27538;17-03-2016;SERVICIO DE TRASLADO DE PERSONAL;527040;21-03-2016;22;Devengada;961
677;2016;SRA;99508950-5;TRANSPORTE PRIVADO ECOTRANS CHILE S.A;FACTURA ;27539;17-03-2016;SERVICIO DE TRASLADO DE PERSONAL;1400530;21-03-2016;22;Devengada;962
678;2016;SRA;99508950-5;TRANSPORTE PRIVADO ECOTRANS CHILE S.A;FACTURA ;27540;17-03-2016;SERVICIO DE TRASLADO DE PERSONAL;20000;21-03-2016;22;Devengada;963
679;2016;SRA;99508950-5;TRANSPORTE PRIVADO ECOTRANS CHILE S.A;FACTURA ;27541;17-03-2016;SERVICIO DE TRASLADO DE PERSONAL;909170;21-03-2016;22;Devengada;964
680;2016;SRA;81771100-6;HUMBERTO GARETTO E HIJOS LIMITADA;FACTURA;825921;15-03-2016;ADQUISICION DE TIMBRE FECHADOR;11723;21-03-2016;22;Devengada;992
681;2016;SRA;77599020-1;COMERCIALIZADORA DE PAPELES Y CARTONES CORDILLERA LIMITADA;FACTURA;475;16-03-2016;ADQUISICION DE PAPEL PLOTTER;149990;21-03-2016;22;Devengada;1223
682;2016;SRA;76055190-2;SOC. COMERCIAL E INDUSTRIAL SERVILINK LTDA;FACTURA;15436;20-01-2016;ARRIENDO DE 3 COMPUTADORES PROTECTORES SOFTWARE MES ENERO;249900;21-03-2016;22;Devengada;1459
683;2016;SRA;89862200-2;LATAM AIRLINES GROUP S.A.;FACTURA ;3001360;21-03-2016;ADQUISICION DE PASAJES AEREOS;20250;21-03-2016;22;Devengada;1073
684;2016;SRA;61808000-5;AGUAS ANDINAS S.A;FACTURA;79805436;03-03-2016;CONSUMO DE AGUA MAC IVER 440-1201;3793;21-03-2016;22;Devengada;910
685;2016;SRA;61808000-5;AGUAS ANDINAS S.A;FACTURA;79805433;03-03-2016;CONSUMO DE AGUA MAC IVER 440-1204;3739;21-03-2016;22;Devengada;911
686;2016;SRA;61808000-5;AGUAS ANDINAS S.A;FACTURA;79805434;03-03-2016;CONSUMO DE AGUA MAC IVER 440-1203;4592;21-03-2016;22;Devengada;912
687;2016;SRA;61808000-5;AGUAS ANDINAS S.A;FACTURA;79805435;03-03-2016;CONSUMO DE AGUA MAC IVER 440-1202;12552;21-03-2016;22;Devengada;913
688;2016;SRA;96800570-7;CHILECTRA S.A.                                    ;FACTURA;15082775;10-03-2016;CONSUMO DE ELECTRICIDAD MAC IVER 440 OF 1202;302540;21-03-2016;22;Devengada;907
689;2016;SRA;96800570-7;CHILECTRA S.A.                                    ;FACTURA;15082776;10-03-2016;CONSUMO DE ELECTRICIDAD MAC IVER 440 OF 1201;188960;21-03-2016;22;Devengada;923
690;2016;SRA;96800570-7;CHILECTRA S.A.                                    ;FACTURA;15082773;10-03-2016;CONSUMO DE ELECTRICIDAD MAC IVER 440 OF 1204;80821;21-03-2016;22;Devengada;908
691;2016;SRA;96800570-7;CHILECTRA S.A.                                    ;FACTURA;15082774;10-03-2016;CONSUMO DE ELECTRICIDAD MAC IVER 440 OF 1203;228166;21-03-2016;22;Devengada;909
692;2016;SRA;76496130-7;SOCIEDAD CONCESIONARIA COSTANERA NORTE S.A.;FACTURA;1504837;16-03-2016;SERVICIO DE TAG;21563;21-03-2016;22;Devengada;944
693;2016;SRA;;ANA MARIA CISTERNA;ARRIENDO;1036;21-03-2016;ARRIENDO MES DE ABRIL 2016 JARDIN INFANTIL;648160;22-03-2016;22;Devengada;903
694;2016;SRA;;COMUNIDAD EDIFICIO PLAZA MAC IVER ;GASTOS COMUNES;1035;21-03-2016;GASTOS COMUNES OFICINAS MAC IVER 440 PISO 12 FEBRERO 2015;1122956;22-03-2016;22;Devengada;904
695;2016;SRA;;ALEJANDRO SAUMA ANANIAS;ARRIENDO;1034;21-03-2016;ARRIENDO OFICINAS MAC IVER 440 PISO 12 MES ABRL 2016;2866523;22-03-2016;22;Devengada;901
696;2016;SRA;;COMUNIDAD EDIFICIO PLAZA MAC IVER ;GASTOS COMUNES;1033;21-03-2016;GASTOS COMUNES OFICINAS MAC IVER 440 PISO 7 FEBRERO 2016;687757;22-03-2016;22;Devengada;905
697;2016;SRA;89862200-2;LATAM AIRLINES GROUP S.A.;FACTURA;2572457;21-03-2016;ADQUISICION DE PASAJES AEREOS;14998869;22-03-2016;22;Devengada;1067
698;2016;SRA;76482497-0;BANQUETERIA NACIONAL SPA;FACTURA;322;21-03-2016;JORNADA -REUNION LEY PICARTE SOTO;171955;22-03-2016;22;Devengada;1418
699;2016;SRA;78159800-3;INTEGRADORES DE TECNOLOGIA Y SISTEMAS S.A.;FACTURA;5463;22-03-2016;CUOTA 13 DE 36 ARRIENDO DE COMPUTADORES;214882503;22-03-2016;22;Devengada;1091
700;2016;SRA;78159800-3;INTEGRADORES DE TECNOLOGIA Y SISTEMAS S.A.;FACTURA;5461;18-03-2016;CUOTA 2 DE 36 ARRIENDO DE COMPUTADORES;314154534;22-03-2016;22;Devengada;1092
701;2016;SRA;79572830-9;MAGO CHIC INDUSTRIAL SOCIEDAD ANOMINA ;FACTURA;12239;21-03-2016;SERVICIO GRAL DE ASEO Y MANTENCION MENSUAL -MES FEBRERO 2016;9802689;22-03-2016;22;Devengada;995
702;2016;SRA;89912300-K;INGENIERIA Y CONSTRUCCION RICARDO RODRIGUEZ Y CIA.LIMITADA;FACTURA;816712;21-03-2016;ADQUISICION DE INSUMOS COMPUTACIONALES STOCK DE BODEGA;20710;22-03-2016;22;Devengada;965
704;2016;SRA;76268728-3;COMERCIALIZADORA DE PRODUCTOS DE ASEO RENHET SPA;FACTURA;3334;21-03-2016;ADQUISICION DE PROTECTORES SOLARES;614473;23-03-2016;22;Devengada;1268
705;2016;SRA;93558000-5;DISTRIBUIDORA PAPELES INDUSTRIALES S.A.;FACTURA;51224;21-03-2016;STOCK DE BODEGA ARTICULOS DE ESCRITORIOS Y MATERIALES DE OFICINA;1218684;23-03-2016;22;Devengada;941
706;2016;SRA;96670840-9;DIMERC S.A;FACTURA;6473100;21-03-2016;STOCK DE BODEGA ARTICULOS DE ESCRITORIOS Y MATERIALES DE OFICINA;479967;23-03-2016;22;Devengada;942
707;2016;SRA;96556940-5;PROVEEDORES INTEGRALES PRISA S.A;FACTURA ;8886736;23-03-2016;STOCK DE BODEGA ADQUISICION DE ARTICULOS Y MATERIEALES DE ASEO;212019;23-03-2016;22;Devengada;943
708;2016;SRA;96556940-5;PROVEEDORES INTEGRALES PRISA S.A;FACTURA ;8886963;23-03-2016;STOCK DE BODEGA ARTICULOS DE ESCRITORIOS Y MATERIALES DE OFICINA;4855;23-03-2016;22;Devengada;950
709;2016;SRA;76082113-6;SOCIEDAD CONCESIONARIA SAN JOSE -TECNOCONTROL S.A.;FACTURA;16;10-03-2016;PAGO TERCERO SUBSIDIO FIJO A LA CONSTRUCCION HOSPITAL MAIPU;13753589474;28-03-2016;33;Devengada;951
710;2016;SRA;76082113-6;SOCIEDAD CONCESIONARIA SAN JOSE -TECNOCONTROL S.A.;FACTURA;17;10-03-2016;PAGO TERCERO SUBSIDIO FIJO A LA CONSTRUCCION HOSPITAL LA FLORIDA;14899721930;28-03-2016;33;Devengada;953
711;2016;SRA;78973230-2;TRANSPORTES TRANSIBERICA LIMITADA;FACTURA;3026;22-03-2016;SERVICIO DE TRASLADO IDA Y VUELTA JORNADA DE PLANIFICACION DEFINIR  CARTA DE NAVEGACION PARA EL EJERCICIO 2016;600300;24-03-2016;22;Devengada;1254
712;2016;SRA;99508950-5;TRANSPORTE PRIVADO ECOTRANS CHILE S.A;FACTURA;27597;23-03-2016;TRASLADO DE FUNCIONARIOS CON VALE DE RADIO TAXI;224930;24-03-2016;22;Devengada;1068
713;2016;SRA;99508950-5;TRANSPORTE PRIVADO ECOTRANS CHILE S.A;FACTURA;27596;23-03-2016;TRASLADO DE FUNCIONARIOS CON VALE DE RADIO TAXI;69180;24-03-2016;22;Devengada;1069
714;2016;SRA;99508950-5;TRANSPORTE PRIVADO ECOTRANS CHILE S.A;FACTURA;27598;23-03-2016;TRASLADO DE FUNCIONARIOS CON VALE DE RADIO TAXI;93000;24-03-2016;22;Devengada;1070
715;2016;SRA;99508950-5;TRANSPORTE PRIVADO ECOTRANS CHILE S.A;FACTURA;27602;23-03-2016;TRASLADO DE FUNCIONARIOS CON VALE DE RADIO TAXI;993440;24-03-2016;22;Devengada;1072
716;2016;SRA;79536650-4;SOCIEDAD AGENCIA DE COMPRAS INTERNACIONALES Y NACIONALES LIMITADA;FACTURA;5756;23-03-2016;SERVICIO DE TRASLADO DE TEJIDOS Y ORGANOS MES ENERO 2016;980560;24-03-2016;22;Devengada;1679
717;2016;SRA;13688936-2;LIDICE TOBAR QUEZADA;REEMBOLSO;1086;28-03-2016;REEMBOLSO TRASLADO A ARICA;10000;28-03-2016;22;Devengada;997
718;2016;SRA;12327475-K;CRISITAN VASQUEZ ANABALON;REEMBOLSO;1085;28-03-2016;REEMBOLSO TRASLADO A VALPARAISO;11060;28-03-2016;22;Devengada;998
719;2016;SRA;77767890-6;INVERSIONES SAUMA LTDA;ARRIENDO;1105;28-03-2016;ARRIENDO MAC IVER 440 OF 703-704  DEPTO CALIDAD Y FORMACION DIGEDEP ABRIL 2016;3098944;28-03-2016;22;Devengada;967
720;2016;SRA;96556940-5;PROVEEDORES INTEGRALES PRISA S.A;NOTA DE CREDITO;814950;22-03-2016;REBAJA FACTURA Nº8859089;-430;28-03-2016;22;Devengada;1272
721;2016;SRA;96945440-8;SOCIEDAD CONCESIONARIA AUTOPISTA CENTRAL S.A.;FACTURA;4093470;22-03-2016;SERVICIO DE TAG;36765;28-03-2016;22;Devengada;1109
722;2016;SRA;99502730-5;HOTEL TORREMAYOR S.A.;factura;27210;22-03-2016;JORNADA DE PLANIFICACION DIVISION DE ATENCION PRIMARIA;5047694;28-03-2016;22;Devengada;1365
723;2016;SRA;76275218-2;INNOVA INVERSIONES SPA;FACTURA;74;28-03-2016;JORNADA MACRO REGIONAL SUR;1770903;28-03-2016;22;Devengada;1685
724;2016;SRA;8966563-9;SANDRA GIOCONDA TELLO LOPEZ;FACTURA;18107;22-03-2016;MATERIALES DE OFICINA STOCK DE BODEGA;95527;28-03-2016;22;Devengada;1110
725;2016;SRA;12811809-8;JESSICA VILLENA GATICA;REEMBOLSO;1135;29-03-2016;REEMBOLSO TRASLADO A VIÑA DEL MAR  CONCEPCION  PTO VARAS  TALCA Y IQUIQUE;99205;29-03-2016;22;Devengada;1081
726;2016;SRA;16892580-8;ESTEFANY MORALES BECERRA;REEMBOLSO;1135;29-03-2016;REEMBOLSO TRASLADO A VIÑA DEL MAR;17480;29-03-2016;22;Devengada;1062
727;2016;SRA;14273504-0;CARLOS POZO OLIVARES;REEMBOLSO;1133;29-03-2016;REEMBOLSO TRASLADO A COYHAIQUE;5000;29-03-2016;22;Devengada;1063
728;2016;SRA;7111293-4;MARIA EUGENIA METTIFOGO;REEMBOLSO;1133;29-03-2016;REEMBOLSO TRASLADO ARICA;10000;29-03-2016;22;Devengada;1099
730;2016;SRA;6564132-1;GINA JARA DIAZ;REEMBOLSO;1113;29-03-2016;TRASLADO A COQUIMBO;6000;29-03-2016;22;Devengada;1100
731;2016;SRA;12465110-7;PATRICIA ACEVEDO LOYOLA;REEMBOLSO;1113;29-03-2016;TRASLADO A ANTOFAGASTA;30000;29-03-2016;22;Devengada;1101
732;2016;SRA;9698611-4;MARCELO CARVALLO CERONI;REEMBOLSO;1134;29-03-2016;TRASLADO A VALPARAISO;23496;29-03-2016;22;Devengada;1102
733;2016;SRA;13134193-8;CRISTIAN MUÑOZ PEREZ;REEMBOLSO;1115;29-03-2016;TRASLADO A LA SERENA;8700;29-03-2016;22;Devengada;1082
734;2016;SRA;12871918-0;RENATO CALCAGNO SOTO;REEMBOLSO;1114;29-03-2016;TRASLADO A VALPARAISO  LOS ANDES Y VIÑA DEL MAR;63742;29-03-2016;22;Devengada;1085
735;2016;SRA;9784129-2;DARIO LEIVA MATURANA;REEMBOLSO;1131;29-03-2016;TRASLDO A ANTOFAGASTA  COPIAPO Y CHIMBARONGO;42136;29-03-2016;22;Devengada;1086
737;2016;SRA;8786938-5;PAZ ROSAS GUZMAN;RENDICION;87;29-03-2016;RENDICION DE FONDO FIJO 2016;196305;29-03-2016;22;Devengada;1226
738;2016;SRA;7476186-0;MARGARITA SEPULVEDA DELLEPIANE;REEMBOLSO;1114;29-03-2016;TRASLADO A CASTRO- CHILOE;28200;29-03-2016;22;Devengada;1090
739;2016;SRA;14077649-1;ADRIAN PILLAN LEAL;REEMBOLSO;1131;29-03-2016;TRASLADO A TEMUCO;5000;29-03-2016;22;Devengada;1104
741;2016;SRA;16486835-4;FELIPE ESPINOZA LARREA;REEMBOLSO;1131;29-03-2016;TRASLADO CHILLAN ;31730;29-03-2016;22;Devengada;1105
744;2016;SRA;76226615-6;INMOBILIARIA EL LITRE LTDA;ARRIENDO;1168;30-03-2016;ARRIENDO DE OFICINAS DIVAP MAC IVER 440 PISO 12 MES ABRIL 2016;2117611;30-03-2016;22;Devengada;990
745;2016;SRA;76295522-9;CENTRO DE ESTUDIOS FORMACION EN GESTION Y POLITICA LIMITADA;FACTURA;96;29-03-2016;TALLER DE PLANIFICACION ESTRATEGICA PRIORIDADES DE GESTION 2016-2018 EN EL MARCO RISS;1979158;29-03-2016;22;Devengada;1022
746;2016;SRA;76295522-9;CENTRO DE ESTUDIOS FORMACION EN GESTION Y POLITICA LIMITADA;NOTA DE CREDITO;11;29-03-2016;ANULA FACTURA Nº96;-1979158;29-03-2016;22;Devengada;1023
747;2016;SRA;76295522-9;CENTRO DE ESTUDIOS FORMACION EN GESTION Y POLITICA LIMITADA;FACTURA;97;29-03-2016;CAPACITACION: PLANIFIACION ESTRATEGICA DIVAP;1979800;29-03-2016;22;Devengada;1213
748;2016;SRA;88417000-1;SKY AIRLINES;FACTURA;303855;29-03-2016;ADQUISICION DE PASAJES AEREOS;1845708;29-03-2016;22;Devengada;1409
749;2016;SRA;76482497-0;BANQUETERIA NACIONAL SPA;FACTURA;328;28-03-2016;REUNION LEY RICARTE SOTO COMITÉ DE EXPERTOS DE ARA;70158;29-03-2016;22;Devengada;1501
750;2016;SRA;6420984-1;CLARISA AGUILERA GUTIERREZ;FACTURA;4;28-03-2016;IMPRESIÓN DE 30 TALONARIOS CON 50 FORMULARIOS PARA TRASLADO TERRESTRE DE ORGANOS;409995;30-03-2016;22;Devengada;1449
751;2016;SRA;6420984-1;CLARISA AGUILERA GUTIERREZ;FACTURA;5;28-03-2016;IMPRESIÓN DE CERTIFICADOS;91767;30-03-2016;22;Devengada;1256
752;2016;SRA;60503000-9;EMPRESAS DE CORREOS DE CHILE;FACTURA;196354;30-03-2016;SERVICIO DE DESPACHO DE CORRESPONDENCIA- NIVEL CENTRAL;530565;30-03-2016;22;Devengada;1065
753;2016;SRA;60503000-9;EMPRESAS DE CORREOS DE CHILE;FACTURA;196353;30-03-2016;SERVICIO DE DESPACHO DE CORRESPONDENCIA- NIVEL CENTRAL;716199;30-03-2016;22;Devengada;1066
754;2016;SRA;78080940-K;AEREOTRANSPORTES ARAUCANIA LIMITADA;FACTURA;288;29-03-2016;TRASLADO A CHILLAN;3902640;30-03-2016;22;Devengada;1706
755;2016;SRA;96556940-5;PROVEEDORES INTEGRALES PRISA S.A;FACTURA;8886962;23-03-2016;MATERIALES DE OFICINA STOCK DE BODEGA;929589;30-03-2016;22;Devengada;1103
756;2016;SRA;78312060-7;COMERCIALIZADORA INTEGRAL ;FACTURA;390272;29-03-2016;ARRIENDO DE MAQUINA FOTOCOPIADORA;373329;30-03-2016;22;Devengada;1218
757;2016;SRA;52001666-K;MIREYA GONZALEZ SERVICIOS E.I.R.L ;FACTURA;1080;29-02-2016;SERVICIO DE TRASLADO EN AVIONETA PARA CHAITEN ;530000;03-03-2016;22;Devengada;1133
758;2016;SRA;76086277-0;INVERSIONES MARIA CRISTINA CANCINO  REYES E.I.R.L.;FACTURA;520;31-03-2016;JORNADA ENFERMERIA AVANZADA OPS- MINSAL;74688;31-03-2016;22;Devengada;1686
759;2016;SRA;96556940-5;PROVEEDORES INTEGRALES PRISA S.A;FACTURA;8894918;29-03-2016;MATERIALES DE OFICINA STOCK DE BODEGA;95765;31-03-2016;22;Devengada;1220
760;2016;SRA;76061008-9;COMERCIAL 3 ARIES LIMITADA;FACTURA;13966;30-03-2016;MATERIALES DE OFICINA STOCK DE BODEGA;183903;31-03-2016;22;Devengada;1222
761;2016;SRA;9906875-2;YUDY ZUÑIGA PAEZ;ARRIENDO;1238;01-04-2016;ARRIENDO ABRIL 2016 DE OF. 601 DE JOSE MIGUEL DE LA BARRA Nº480 PARA PLAN NACIONAL DE INVERSIONES;1678011;01-04-2016;22;Devengada;
762;2016;SRA;8315552-3;ALFREDO HERNAN MORALES GALVEZ;RENDICION;1240;03-04-2016;RENDICION DE FONDO FIJO 2016;104400;04-04-2016;22;Devengada;
763;2016;SRA;80116100-6;BLANCO VIAJES LTDA;FACTURA;431155;31-03-2016;ADQUISICION DE PASAJES AEREOS;17796033;01-04-2016;22;Devengada;1221
764;2016;SRA;96678350-8;TECHNO SYSTEMS CHILE LTDA ;FACTURA;5153;29-03-2016;SERVICIO DE ARRIENDO MENSUAL DE EQUIPOS LENOVO;237648;01-04-2016;22;Devengada;1746
765;2016;SRA;76275218-2;INNOVA INVERSIONES SPA;FACTURA;77;01-04-2016;JORNADA MACRO REGIONAL SUR;612165;01-04-2016;22;Devengada;1434
766;2016;SRA;78312060-7;COMERCIALIZADORA INTEGRAL ;FACTURA;390322;01-04-2016;ARRIENDO DE MAQUINA FOTOCOPIADORA;79302;04-04-2016;22;Devengada;1219
767;2016;SRA;99511100-4;HOTELERA SAN FRANCISCO S.A.                       ;FACTURA;20249;29-03-2016;JORNADA CONISS SEGUNDO LLAMADO;1019905;04-04-2016;22;Devengada;1707
769;2016;SRA;99511100-4;HOTELERA SAN FRANCISCO S.A.                       ;FACTURA;20237;29-03-2016;JORNADA COMGES;1208876;04-04-2016;22;Devengada;1370
771;2016;SRA;99511100-4;HOTELERA SAN FRANCISCO S.A.                       ;FACTURA;20251;29-03-2016;JORNADA CONE SS PRIMER LLAMADO;919157;04-04-2016;22;Devengada;1708
772;2016;SRA;99511100-4;HOTELERA SAN FRANCISCO S.A.                       ;FACTURA;20250;29-03-2016;JORNADA NP DENTISTAS -PRIMER LLAMADO;919157;04-04-2016;22;Devengada;1710
773;2016;SRA;76055190-2;SOC. COMERCIAL E INDUSTRIAL SERVILINK LTDA;FACTURA;15539;20-02-2016;ARRIERNDO 3 COMPUTADORES PROYECTO SOFTWARE MANTENCION;249900;04-04-2016;22;Devengada;1448
774;2016;SRA;96678350-8;TECHNO SYSTEMS CHILE LTDA ;FACTURA;4361;30-12-2015;CUOTA 1 DE 36 SERVICIO DE ARRIENDO MENSUAL DE EQUIPOS LENOVO;237648;04-04-2016;22;Devengada;1454
775;2016;SRA;96678350-8;TECHNO SYSTEMS CHILE LTDA ;FACTURA;4886;29-02-2016;CUOTA 2 DE 12 SERVICIO DE ARRIENDO MENSUAL DE EQUIPOS LENOVO;237648;04-04-2016;22;Devengada;1455
776;2016;SRA;96678350-8;TECHNO SYSTEMS CHILE LTDA ;FACTURA;4888;29-02-2016;CUOTA 3 DE 12 SERVICIO DE ARRIENDO MENSUAL DE EQUIPOS LENOVO;237648;07-03-2016;22;Devengada;1458
777;2016;SRA;11906251-9;CLODOVET MILLALEN SANDOVAL;REEMBOLSO;1263;06-04-2016;TRASLADO A IQUIQUE-VALPARAISO;34700;06-04-2016;22;Devengada;1211
778;2016;SRA; 96989380-0;HOTELERA DON VICENTE S.A.;FACTURA;828;05-04-2016;JORNADA MACRO REGION EXTREMO SUR;1999998;05-04-2016;22;Devengada;1373
779;2016;SRA;78159800-3;INTEGRADORES DE TECNOLOGIA Y SISTEMAS SA;FACTURA;5483;30-03-2016;CUOTA 21 DE 36 ARRIENDO HP ENVY;629248;05-04-2016;22;Devengada;1347
783;2016;SRA;78159800-3;INTEGRADORES DE TECNOLOGIA Y SISTEMAS SA;FACTURA;5525;31-03-2016;ADQUISICION DE 4 LICENCIAS MICROSOFT;521387;05-04-2016;29;Devengada;1387
784;2016;SRA;77917240-6;SOCIEDAD DE INGENIERIA EN INFORMATICA SAYDEX LIMITADA;NOTA DE CREDITO;109;31-03-2016;CORRIGE TEXTO DONDE DICE CUOTA ; -   ;05-04-2016;22;Devengada;6
785;2016;SRA;78099680-3;HOTEL FINIS TERRAE;FACTURA;57833;09-03-2016;SERVICIO DE ALOJAMIENTO EN PUNTA ARENAS;133198;05-04-2016;22;Devengada;1301
786;2016;SRA;77319960-4;COMERCIAL NUEVA COPIA LIMITADA;FACTURA;29405;01-04-2016;ARRIENDO  FOTOCOPIADORA;178744;05-04-2016;22;Devengada;1216
787;2016;SRA;77319960-4;COMERCIAL NUEVA COPIA LIMITADA;FACTURA;29404;01-04-2016;ARRIENDO  FOTOCOPIADORA;216960;05-04-2016;22;Devengada;1217
788;2016;SRA;77319960-4;COMERCIAL NUEVA COPIA LIMITADA;FACTURA;29403;01-04-2016;ARRIENDO  FOTOCOPIADORA;548481;05-04-2016;22;Devengada;1314
789;2016;SRA;77319960-4;COMERCIAL NUEVA COPIA LIMITADA;FACTURA;29402;01-04-2016;ARRIENDO  FOTOCOPIADORA;320275;05-04-2016;22;Devengada;1421
790;2016;SRA;77319960-4;COMERCIAL NUEVA COPIA LIMITADA;FACTURA;29401;01-04-2016;ARRIENDO  FOTOCOPIADORA;181646;05-04-2016;22;Devengada;1259
791;2016;SRA;77319960-4;COMERCIAL NUEVA COPIA LIMITADA;FACTURA;29400;01-04-2016;ARRIENDO  FOTOCOPIADORA;916822;05-04-2016;22;Devengada;1303
792;2016;SRA;77319960-4;COMERCIAL NUEVA COPIA LIMITADA;FACTURA;29399;01-04-2016;ARRIENDO  FOTOCOPIADORA;926479;05-04-2016;22;Devengada;1255
793;2016;SRA; 16558483-K;RODRIGO ANDRES ALDAY RODRIGUEZ;FACTURA;3103;05-04-2016;ADQUISICION DE VAJILLA ;111955;06-04-2016;22;Devengada;1433
794;2016;SRA;78906980-8;COMERCIAL MUÑOZ Y COMPAÑÍA LIMITADA;FACTURA;47456;05-04-2016;STOCK DE BODEGA ADQUISICION DE ARTICULOS Y MATERIEALES DE OFICINA;52130;06-04-2016;22;Devengada;1283
795;2016;SRA;96807120-3;INTER-CON SEGURITY;FACTURA;5849;31-03-2016;SERVICIO DE SEGURIDAD MES MARZO 2016;4498329;06-04-2016;22;Devengada;1414
796;2016;SRA;89862200-2;LATAM AIRLINES GROUP S.A.;FACTURA;3002204;31-03-2016;ADQUISICION DE PASAJES AEREOS;205250;06-04-2016;22;Devengada;1286
797;2016;SRA;89862200-2;LATAM AIRLINES GROUP S.A.;FACTURA;2585030;31-03-2016;ADQUISICION DE PASAJES AEREOS;6554786;06-04-2016;22;Devengada;1410
798;2016;SRA;78906980-8;COMERCIAL MUÑOZ Y COMPAÑÍA LIMITADA;FACTURA;47552;05-04-2016;STOCK DE BODEGA ADQUISICION DE ARTICULOS Y MATERIALES DE ASEO;842377;06-04-2016;22;Devengada;1282
799;2016;SRA;88417000-1;SKY AIRLINES;FACTURA;305685;31-03-2016;ADQUISICION DE PASAJES AEREOS;918752;07-04-2016;22;Devengada;1441
800;2016;SRA;78973230-2;TRANSPORTE TRANSIBERICA LIMITADA ;FACTURA;3116;31-03-2016;SERVICIO DE TRALADO DE MENORES Y CUERPO DOCENTE;1299500;07-04-2016;22;Devengada;1442
801;2016;SRA;96670840-9;DIMERC S.A;FACTURA;6521443;07-04-2016;STOCK DE BODEGA ADUISICION DE ARTICULOS DE ESCRITORIOS Y MATERIALES DE OFICINA;1090880;07-04-2016;22;Devengada;1284
802;2016;SRA;82273200-3;EDITORIAL JURIDICA DE CHILE EDITORIAL ANDRES BELLO;FACTURA;516696;07-04-2016;ADQUISICION ESTATUTO ADMINISTRATIVO Y COMENTADO DIGEDEP;193799;07-04-2016;22;Devengada;1445
804;2016;SRA;99520000-7;COMPAÑÍA DE PETROLEOS DE CHILE COPEC S.A.;RENDICION;1255;05-04-2016;RENDICION DE RECARGA DE LAS TARJETAS DE COMBUSTIBLE DE LOS VEHICULOS FISCALES SRA;10000000;05-04-2016;22;Devengada;1160
805;2016;SRA;76049667-7;HOTEL MANQUEHUE S.A;FACTURA;2906;08-04-2016;JORNADA DIRECTIVOS DE SALUD;1632073;11-04-2016;22;Devengada;1233
806;2016;SRA;99511100-4;HOTELERA SAN FRANCISCO S.A.                       ;FACTURA;20447;06-04-2016;JORNADA MACRO REGIONAL CENTRO -JORNADA COMGES;2413368;11-04-2016;22;Devengada;1499
807;2016;SRA;60501000-8;DIARIO OFICIAL ;FACTURA;19731;23-03-2016;PUBLICACION DECRETO EXENTO Nº469;130180;11-04-2016;22;Devengada;1290
809;2016;SRA;78130370-4;CORPORACION DE RECUSROS EN TELECOMUNICACIONES LTDA;FACTURA;3737;26-02-2016;ADQUISICION DE GPS PARA VEHICULO ASIGNADO A SRA. SUBSECRETARIA DE REDES ASISTENCIALES;175740;11-04-2016;29;Devengada;1450
810;2016;SRA;96502540-5;STUDEMANN S.A.;FACTURA;48100;05-04-2016;ARRIENDO DE EQUIPOS;228751;11-04-2016;22;Devengada;1446
811;2016;SRA;79536650-4;SOCIEDAD AGENCIA DE COMPRAS INTERNACIONALES Y NACIONALES LIMITADA;FACTURA;5763;08-04-2016;SERVICIO DE TRASLADO DE ORGANOS Y TEJIDOS MARZO 2016;904400;11-04-2016;22;Devengada;1677
812;2016;SRA;79536650-4;SOCIEDAD AGENCIA DE COMPRAS INTERNACIONALES Y NACIONALES LIMITADA;FACTURA;5762;08-04-2016;SERVICIO DE TRASLADO DE ORGANOS Y TEJIDOS FEBRERO 2016;1818320;11-04-2016;22;Devengada;1699
813;2016;SRA;78178530-K;ROLAND VORWERK Y COMPAÑÍA LIMITADA;FACTURA;36114;11-04-2016;ADQUISICION INSUMOS COMPUTACIONALES STOCK DE BODEGA;4628;12-04-2016;22;Devengada;1285
814;2016;SRA;76395665-2;ARTEC SPA ;FACTURA;296;04-04-2016;SERVICIO DE ARRIENDO MENSUAL DE EQUIPOS ARTEC;124996;12-04-2016;22;Devengada;1742
815;2016;SRA;76049667-7;HOTEL MANQUEHUE S.A;FACTURA;2919;12-04-2016;JORNADA DE DIRECTIVOS DE SALUD;1632073;12-04-2016;22;Devengada;1498
816;2016;SRA;76049667-7;HOTEL MANQUEHUE S.A;NOTA DE CREDITO;293;12-04-2016;ANULA FACTURA Nº2906;-1632073;12-04-2016;22;Devengada;1234
818;2016;SRA;89862200-2;LATAM AIRLINES GROUP S.A.;FACTURA;2225399;12-04-2016;ADQUISICION DE PASAJES AEREOS;10000;13-04-2016;22;Devengada;1335
819;2016;SRA;76132121-8;INCORPORA S.A.;FACTURA;1044;13-04-2016;OTORGA BECA  KARINA TRUJILLO FUENTE  CURSO FORMACION DE EVALUADORES PARA EL SISTEMA DE ACREDITACION A REALIZARSE EN EL INSTITUTO DE NEUROCIRUGIA;440000;14-04-2016;22;Devengada;1718
820;2016;SRA;99508950-5;TRANSPORTE PRIVADO ECOTRANS CHILE S.A;FACTURA;27801;13-04-2016;TRASLADO DE FUNCIONARIOS CON VALE DE RADIO TAXI;502280;14-04-2016;22;Devengada;1334
822;2016;SRA;76462500-5;SURTI VENTAS S.A.;FACTURA;2584387;14-04-2016;ADQUISICION DE TIJERAS Y CALCULADORA;76423;14-04-2016;22;Devengada;1500
823;2016;SRA;16302886-7;CAROLINA NAVARRETE GUARDIA;REEMBOLSO;1131;29-03-2016;TRASLDO A PTA ARENAS;24400;29-03-2016;22;Devengada;1277
824;2016;SRA;14065538-4;ESTEBAN URIBE VALERIA;REEMBOLSO;1131;29-03-2016;TRASLDO A PTA ARENAS;24400;29-03-2016;22;Devengada;1276
825;2016;SRA;10246676-4;GERMAN SAEZ CABELLO;REEMBOLSO;1131;29-03-2016;TRASLDO A PTA ARENAS-SAN ANTONIO;47200;29-03-2016;22;Devengada;1271
826;2016;SRA;9196046-K;JORGE ALARCON VILLALOBOS;REEMBOLSO;1131;29-03-2016;TRASLDO A CALAMA-PTA ARENAS-LA SERENA;49900;29-03-2016;22;Devengada;1273
827;2016;SRA;12241139-7;ALICIA CERDA LUCER;REEMBOLSO;1134;12-04-2016;TRASLDO A LA SERENA;7010;29-03-2016;22;Devengada;1274
828;2016;SRA;14622400-8;OSCAR GUERRERO MALLEA;REEMBOLSO;1332;12-04-2016;TRASLDO A LA SERENA-ARICA;16000;12-04-2016;22;Devengada;1275
829;2016;SRA;13038464-1;NATALIA ILABACA GALAZ;REEMBOLSO;1361;13-04-2016;TRASLDO A CALAMA;6000;13-04-2016;22;Devengada;1266
830;2016;SRA;16354999-9;MARIA LUISA CORDERO;FONDO FIJO;24;06-04-2016;DEVENGA RENDICION FONDO FIJO 2015 MARIA LUISA CORDERO;248823;08-04-2016;22;Devengada;1260
831;2016;SRA;99508950-5;TRANSPORTE PRIVADO ECOTRANS CHILE S.A;FACTURA;27802;13-04-2016;SERVICIO DE TRASLADO DE FUNCIONARIOS RADIO TAXI;624620;15-04-2016;22;Devengada;1316
832;2016;SRA;76275218-2;INNOVA INVERSIONES SPA;FACTURA;82;15-04-2016;SERVICIO DE COFFE BREAK HOSPITAL EL CARMEN ;295596;15-04-2016;22;Devengada;1680
834;2016;SRA;14622400-8;OSCAR GUERRERO MALLEA;REEMBOLSO;1381;15-04-2016;TRASLADO A PTA ARENA ;13000;15-04-2016;22;Devengada;1297
835;2016;SRA;9666227-0;CARMEN CECILIA MORAGA GUTIERREZ;REEMBOLSO;1381;15-04-2016;TRASLADO A LOS ANGELES;44200;15-04-2016;22;Devengada;1296
836;2016;SRA;16473925-2;JAZMINE PIZARRO OPAZO;REEMBOLSO;1382;15-04-2016;TRASLADO A VIÑA DEL MAR;6300;15-04-2016;22;Devengada;1295
837;2016;SRA;14065538-4;ESTEBAN URIBE VALERIA;REEMBOLSO;1382;15-04-2016;TRASLADO A TALCA;11500;15-04-2016;22;Devengada;1294
838;2016;SRA;11115504-6;SANDRA ISABEL CHEUQUEPAN QUEZADA;REEMBOLSO;1381;15-04-2016;TRASLADO A ARAUCO;26800;15-04-2016;22;Devengada;1293
839;2016;SRA;96972300-k;SOCIEDAD CONCESIONARIA VESPUCIO SUR S.A.;FACTURA;3538790;14-04-2016;SERVICIO TAG;1300;18-04-2016;22;Devengada;1315
840;2016;SRA;96511350-9;HOTELERA Y TURISMO S.A;FACTURA;38740;14-04-2016;JORNADA INTERSECTORIAL CHILE CRECE CONTIGO MINSAL-MIDESO;721026;18-04-2016;22;Devengada;1695
841;2016;SRA;92083000-5;DIMACOFI S.A.;FACTURA;103265;24-03-2016;ARRIENDO DE FOTOCOPIADORA MULTIFUNCIONAL;1085760;18-04-2016;22;Devengada;1497
844;2016;SRA;89862200-2;LATAM AIRLINES GROUP S.A.;FACTURA;2593669;19-04-2016;ADQUISICION DE PASAJES AEREOS;8731879;19-04-2016;22;Devengada;1496
846;2016;SRA;96800570-7;CHILECTRA S.A.                                    ;FACTURA;15217340;12-04-2016;CONSUMO ELECTRICIDAD EN MAC IVER 440- 703;286667;19-04-2016;22;Devengada;1332
847;2016;SRA;96800570-7;CHILECTRA S.A.                                    ;FACTURA;15217339;12-04-2016;CONSUMO ELECTRICIDAD EN MAC IVER 440- 704;284310;19-04-2016;22;Devengada;1343
848;2016;SRA;96800570-7;CHILECTRA S.A.                                    ;FACTURA;15217324;12-04-2016;CONSUMO ELECTRICIDAD EN MAC IVER 440- 1201;169020;19-04-2016;22;Devengada;1336
849;2016;SRA;96800570-7;CHILECTRA S.A.                                    ;FACTURA;15217323;12-04-2016;CONSUMO ELECTRICIDAD EN MAC IVER 440- 1202;269212;19-04-2016;22;Devengada;1337
850;2016;SRA;96800570-7;CHILECTRA S.A.                                    ;FACTURA;15217322;12-04-2016;CONSUMO ELECTRICIDAD EN MAC IVER 440- 1203;234334;19-04-2016;22;Devengada;1330
851;2016;SRA;96800570-7;CHILECTRA S.A.                                    ;FACTURA;15217321;12-04-2016;CONSUMO ELECTRICIDAD EN MAC IVER 440- 1204;86630;19-04-2016;22;Devengada;1338
852;2016;SRA;56055280-7;COMUNIDAD EDIFICIO PLAZA MAC IVER ;GASTOS COMUNES;1436;20-04-2016;GASTOS COMUNES COMUNIDAD EDIFICIO PLAZA MAC IVER 440 PISO 12 MES MARZO 2016;1063876;20-04-2016;22;Devengada;1344
853;2016;SRA;4488059-8;ALEJANDRO SAUMA ANANIAS;ARRIENDO;1439;20-04-2016;ARRIENDO A.SAUMA ANANIAS MAYO 2016 MAC IVER 440  PISO 12;2877570;20-04-2016;22;Devengada;1345
854;2016;SRA;15644560-6;IGNACIO MORALES LORCA;REEMBOLSO;1386;15-04-2016;TRASLADO A CONCEPCION  VALPARAISO Y RANCAGUA;37240;15-04-2016;22;Devengada;1366
855;2016;SRA;14628881-2;JUAN CARLOS GARCIA;REEMBOLSO;1383;15-04-2016;TRASLADO A LA SERENA;44622;15-04-2016;22;Devengada;1367
856;2016;SRA;9784129-2;DARIO LEIVA MATURANA;REEMBOLSO;1382;15-04-2016;TRASLADO A SAN FELIPE;12580;15-04-2016;22;Devengada;1369
857;2016;SRA;12530346-3;ESTEBAN FERNANDEZ SILVA;REEMBOLSO;1382;15-04-2016;TRASLADO A TALCA;11000;15-04-2016;22;Devengada;1368
858;2016;SRA;5852892-7;ANA MARIA CISTERNA;ARRIENDO;1452;20-04-2016;ARRIENDO JARDIN INFANTIL MES MAYO 2016;655270;20-04-2016;22;Devengada;1348
859;2016;SRA;56004700-2;COMUNIDAD EDIFICIO J.M. DE LA BARRA;GASTOS COMUNES;1450;20-04-2016;.M. DE LA BARRA Nº 480 OF.601 MES MARZO 2016 PLAN NAC. INVERSIONES;167312;20-04-2016;22;Devengada;1349
860;2016;SRA;96800570-7;CHILECTRA S.A.                                    ;FACTURA;149584599;12-04-2016;SERVICIO DE CONSUMO ELECTRICIDAD EN JM DE LA BARR A 480;131250;20-04-2016;22;Devengada;1346
861;2016;SRA;79572830-9;MAGO CHIC INDUSTRIAL SOCIEDAD ANOMINA ;FACTURA;12406;14-04-2016;SERVICIO GRAL DE ASEO Y MANTENCION MENSUAL -MES MARZO 2016;9802689;20-04-2016;22;Devengada;1453
862;2016;SRA;76371153-6;OCEANOS AZULES SERVICIOS DE CONSULTORIA LIMITADA;FACTURA;27;11-04-2016;ADQUISICION DE 10 LICENCIAS MICROSOFT OFFICEPROPLUS 2016;2637023;20-04-2016;29;Devengada;1749
863;2016;SRA;82613800-9;INSTITUTO CHILENO BRITANICO DE CULTURA;FACTURA;1035;20-04-2016;OTORGA BECA A MONICA POHLENZ ACUÑA CURSO DE INGLES ;284800;20-04-2016;22;Devengada;1741
865;2016;SRA;61608700-2;CENTRAL DE ABASTECIMIENTO DEL SISTEMA NACIONAL DE SERVICIOS DE SALUD;FACTURA;90667;20-04-2016;SERVICIO LOGISTICO SET PARN;86742552;21-04-2016;24;Devengada;1483
868;2016;SRA;61808000-5;AGUAS ANDINAS S.A;FACTURA;81407242;02-04-2016;CONSUMO DE AGUA EN MAC IVER 440-1204;4180;21-04-2016;22;Devengada;1397
869;2016;SRA;61808000-5;AGUAS ANDINAS S.A;FACTURA;81407243;02-04-2016;CONSUMO DE AGUA EN MAC IVER 440-1203;6855;21-04-2016;22;Devengada;1390
870;2016;SRA;61808000-5;AGUAS ANDINAS S.A;FACTURA;81407244;02-04-2016;CONSUMO DE AGUA EN MAC IVER 440-1202;23813;21-04-2016;22;Devengada;1392
871;2016;SRA;61808000-5;AGUAS ANDINAS S.A;FACTURA;81407245;02-04-2016;CONSUMO DE AGUA EN MAC IVER 440-1201;5966;21-04-2016;22;Devengada;1393
872;2016;SRA;88417000-1;SKY AIRLINES;FACTURA;308773;20-04-2016;ADQUISICION DE PASAJES AEREOS;802624;21-04-2016;22;Devengada;1711
873;2016;SRA;76086277-0;INVERSIONES MARIA CRISTINA CANCINO  REYES E.I.R.L.;FACTURA;526;21-04-2016;JORNADA CAMPAÑA INVIERNO  20 DE ABRIL- CENTRO DE ENLACE;101663;21-04-2016;22;Devengada;1676
874;2016;SRA;15270289-2;JUAN AGUILAR BOBADILLA;REEMBOLSO;1383;15-04-2016;REEMBOLSO TRASLADO A VIÑA DEL MAR;7040;15-04-2016;22;Devengada;1396
876;2016;SRA;61808000-5;AGUAS ANDINAS S.A;FACTURA;81407258;07-01-2016;CONSUMO DE AGUA EN MAC IVER Nº440-704;45032;22-04-2016;22;Devengada;1437
877;2016;SRA;61808000-5;AGUAS ANDINAS S.A;FACTURA;81407259;07-01-2016;CONSUMO DE AGUA EN MAC IVER Nº440-703;20240;22-04-2016;22;Devengada;1436
879;2016;SRA;76496130-7;SOCIEDAD CONCESIONARIA COSTANERA NORTE S.A.;FACTURA;1536526;20-04-2016;SERVICIO PEAJES TAG- COSTANERA NORTE;56379;22-04-2016;22;Devengada;1435
883;2016;SRA;96945440-8;SOCIEDAD CONCESIONARIA AUTOPISTA CENTRAL S.A.;FACTURA;4140424;21-04-2016;SERVICIO PEAJES TAG- AUSTOPISTA CENTRAL;32136;26-04-2016;22;Devengada;1457
884;2016;SRA;71500500-K;UNIVERSIDAD MAYOR;FACTURA;2402;22-04-2016;CAPACITACION OTORGA BECA WANDA CARDENAS JIMENEZ;500000;26-04-2016;22;Devengada;1669
889;2016;SRA;4488059-8;ALEJANDRO SAUMA ANANIAS;ARRIENDO;1551;28-04-2016;ARRIENDO DEPENDENCIAS DEPTO CALIDAD Y FORMACION DIGEDEP MAC IVER 440 OF. 703- 704 MES MAYO 2016;3110886;28-04-2016;22;Devengada;1502
890;2016;SRA;8315552-3;ALFREDO HERNAN MORALES GALVEZ;RENDICION;1556;28-04-2016;RENDICION DE FONDO FIJO 2016;102500;28-04-2016;22;Devengada;1495
891;2016;SRA;61608700-2;CENTRAL DE ABASTECIMIENTO DEL SISTEMA NACIONAL DE SERVICIOS DE SALUD;FACTURA;91683;25-04-2016;COMISION SERVICIO COMPRA APOYO R. NACIDO ;18183438;28-04-2016;24;Devengada;1487
892;2016;SRA;61608700-2;CENTRAL DE ABASTECIMIENTO DEL SISTEMA NACIONAL DE SERVICIOS DE SALUD;FACTURA;91684;25-04-2016;COMISION SERVICIO COMPRA APOYO R. NACIDO ;12924721;28-04-2016;24;Devengada;1476
893;2016;SRA;78966620-2;ROBERTO JIMENEZ E HIJOS LTDA;FACTURA;42;04-04-2016;SET APEGO SEGURO Y VESTUARIO BEBE PROG. PARN;306306000;28-04-2016;24;Devengada;1488
894;2016;SRA;78966620-2;ROBERTO JIMENEZ E HIJOS LTDA;FACTURA;43;04-04-2016;SET CUIDADO BASICO ESTIMULAC. REC. NACIDO;299808600;28-04-2016;24;Devengada;1489
895;2016;SRA;93049000-8;TEXTILES ZAHR S.A;FACTURA;5735;04-04-2016;SET CUNA CORRAL EQUIPADA;430824030;28-04-2016;24;Devengada;1475
896;2016;SRA;61608700-2;CENTRAL DE ABASTECIMIENTO DEL SISTEMA NACIONAL DE SERVICIOS DE SALUD;FACTURA;92527;26-04-2016;SERVICIO LOGISTICO SET PARN;92732053;27-04-2016;24;Devengada;1477
897;2016;SRA;61608700-2;CENTRAL DE ABASTECIMIENTO DEL SISTEMA NACIONAL DE SERVICIOS DE SALUD;FACTURA;92528;26-04-2016;SERVICIO LOGISTICO SET PARN;100159190;27-04-2016;24;Devengada;1486
898;2016;SRA;60501000-8;SUBSECRETARIA DEL INTERIOR;FACTURA;20952;15-04-2016;PUBLICIDAD LEY N°20909;378706;27-04-2016;22;Devengada;1518
899;2016;SRA;60501000-8;SUBSECRETARIA DEL INTERIOR;FACTURA;20974;15-04-2016;PUBLICACION DECRETO N°06 Y 07;228801;27-04-2016;22;Devengada;1517
900;2016;SRA;61608700-2;CENTRAL DE ABASTECIMIENTO DEL SISTEMA NACIONAL DE SERVICIOS DE SALUD;NOTA DE CREDITO;1595;28-04-2016;REBAJA FACTURA 92527;-789110;29-04-2016;24;Devengada;1490-1491
901;2016;SRA;76226615-6;INMOBILIARIA EL LITRE LTDA;ARRIENDO;1591;29-04-2016;ARRIENDO OFICINAS DIVAP MAC IVER 440 PISO 12º  MES MAYO 2016;2125772;29-04-2016;22;Devengada;1515
904;2016;SRA;78312060-7;COMERCIALIZADORA INTEGRAL ;FACTURA;390533;28-04-2016;ARRIENODE MAQUINA FOTOCOPIADORA;399641;28-04-2016;22;Devengada;1717
905;2016;SRA;9906875-2;YUDY ZUÑIGA PAEZ;ARRIENDO;1614;02-05-2016;ARRIENDO MAYO 2016 OF. 601 JOSE MIGUEL DE LA BARRA Nº480 PARA PLAN NACIONAL DE INVERSIONES;1685063;02-05-2016;22;Devengada;1516
911;2016;SRA;13442074-K;MICHELINA HERNANDEZ BARTOLOMEI;REEMBOLSO;1615;02-05-2016;REEMBOLSO TRASLADO A TEMUCO;349000;02-05-2016;22;Devengada;1700
922;2016;SRA;96783990-6;CYBERCENTER S.A.;FACTURA;38299;30-04-2016;SERVICIOS DE CONTINUIDAD Y REFACTORIZACION SISTEMA SINTEGRADO DONACION Y TRANSPLANTE Y DE INTEROPERABILIDAD SIDOT;3237300;03-05-2016;22;Devengada;1675
923;2016;SRA;96992030-1;SOCIEDAD CONCESIONARIA VESPUCIO NORTE EXPRESS S.A.;FACTURA;3346839;17-03-2016;SERVICIO DE PEAJES TAG;7900;05-05-2016;22;Devengada;1600
924;2016;SRA;99147000-k;BCI SEGUROS GENERALES S.A.;FACTURA;1333431;25-04-2016;SOAP VEHICULOS HYUNDAI SONATA PATENTE FKDW-72;5200;04-05-2016;22;Devengada;1673
926;2016;SRA;99508950-5;TRANSPORTE PRIVADO ECOTRANS CHILE S.A;FACTURA;27947;29-04-2016;SERVICIO DE RADIO TAXI;733060;04-05-2016;22;Devengada;1671
927;2016;SRA;99508950-5;TRANSPORTE PRIVADO ECOTRANS CHILE S.A;FACTURA;27948;29-04-2016;SERVICIO DE RADIO TAXI;1115640;04-05-2016;22;Devengada;1672
928;2016;SRA;99508950-5;TRANSPORTE PRIVADO ECOTRANS CHILE S.A;FACTURA;27949;29-04-2016;SERVICIO DE RADIO TAXI;1144250;04-05-2016;22;Devengada;1689
930;2016;SRA;81698900-0;PONTIFICIA UNIVERSIDAD CATOLICA DE CHILE;FACTURA;98460;04-05-2016;ESTUDIO DE MEDICION Y APLICACIÓN DEL INSTRUME DE EVALUACION;42500000;04-05-2016;22;Devengada;1683
937;2016;SRA;9784129-2;DARIO LEIVA MATURANA;REEMBOLSO;1660;05-05-2016;REEMBOLSO TRASLADO A ILLAPEL;12060;05-05-2016;22;Devengada;1731
938;2016;SRA;10246676-4;GERMAN SAEZ CABELLO;REEMBOLSO;1660;05-05-2016;REEMBOLSO TRASLADO A ILLAPEL-IQUIQUE;17060;05-05-2016;22;Devengada;1732
939;2016;SRA;9196046-K;JORGE ALARCON VILLALOBOS;REEMBOLSO;1660;05-05-2016;REEMBOLSO TRASLADO A ILLAPEL;14020;05-05-2016;22;Devengada;1690
940;2016;SRA;8286917-4;ARNOLDO URIBE GIL;REEMBOLSO;1660;05-05-2016;REEMBOLSO TRASLADO A ILLAPEL;12060;05-05-2016;22;Devengada;1701
941;2016;SRA;14628881-2;JUAN CARLOS GARCIA;REEMBOLSO;1660;05-05-2016;REEMBOLSO TRASLADO A LA SERENA ;22700;05-05-2016;22;Devengada;1691
945;2016;SRA;8318753-0;CARMEN GLORIA REBOLLEDO;REEMBOLSO;1693;05-05-2016;REEMBOLSO TRASLADO A CONCEPCION-IQUIQUE;51000;06-05-2016;22;Devengada;1664
946;2016;SRA;78920661-1;JOSE CONCHA GONGORA;REEMBOLSO;1693;05-05-2016;REEMBOLSO TRASLADO A VALPARAISO-IQUIQUE-TEMUCO-ANGOL;83912;06-05-2016;22;Devengada;1665
947;2016;SRA;16180321-9;PAMELA FLORES ROJAS;REEMBOLSO;1693;05-05-2016;REEMBOLSO TRASLADO A COYHAIQUE;10000;06-05-2016;22;Devengada;1696
948;2016;SRA;16365739-2;MARIA GRACIELA HOFFMANN ROJAS;REEMBOLSO;1693;05-05-2016;REEMBOLSO TRASLADO A CONCEPCION;7000;06-05-2016;22;Devengada;1734
949;2016;SRA;8339746-2;FABIOLA GALLEGILLOS NAVARRETE;REEMBOLSO;1693;05-05-2016;REEMBOLSO TRASLADO A REÑACA;7200;06-05-2016;22;Devengada;1698
950;2016;SRA;8893449-0;PABLO DURAN VALENZUELA ;REEMBOLSO;1694;05-05-2016;REEMBOLSO TRASLADO A PTO MONTT;12000;06-05-2016;22;Devengada;1713
951;2016;SRA;12906287-8;MARCELA MEDINA GALAZ;REEMBOLSO;1694;05-05-2016;REEMBOLSO TRASLADO A PTO MONTT;12000;06-05-2016;22;Devengada;1712
952;2016;SRA;13665457-8;IVETTE LORCA LEIVA;REEMBOLSO;1694;05-05-2016;REEMBOLSO TRASLADO A VALDIVIA-PTO MOMTT;67000;06-05-2016;22;Devengada;1745
953;2016;SRA; 13724044-0;RODRIGO CASTRO ARRIAGADA;REEMBOLSO;1694;05-05-2016;REEMBOLSO TRASLADO A PTA ARENAS;26010;06-05-2016;22;Devengada;1702
960;2016;SRA;7925966-7;ELIANA VARAS VARAS ;REEMBOLSO;1754;09-05-2016;REEMBOLSO TRASLADO A LA SERENA ;31700;09-05-2016;22;Devengada;1703
961;2016;SRA;6069601-2;MARGARITA BARRIA IROUME;REEMBOLSO;1754;09-05-2016;REEMBOLSO TRASLADO A RANCAGUA;3500;09-05-2016;22;Devengada;1733
963;2016;SRA;13459118-8;CLAUDIA JIMENEZ HURTADO;REEMBOLSO;1747;09-05-2016;REEMBOLSO TRASLADO A CASTRO CHILOE;6200;09-05-2016;22;Devengada;1692
966;2016;SRA;13729390-0;PATRICIO SARABIA SANDOVAL;REEMBOLSO;1751;09-05-2016;REEMBOLSO TRASLADO A RANCAGUA;5200;09-05-2016;22;Devengada;1666
967;2016;SRA;12507213-5;CRISTIAN FIGUEROA SANCHEZ;REEMBOLSO;1750;09-05-2016;REEMBOLSO TRASLADO A PTA ARENAS;27000;09-05-2016;22;Devengada;1668
979;2016;SRA;12235160-2;JULIO SALGADO MIRANDA;REEMBOLSO;1745;09-05-2016;REEMBOLSO TRASLADO A IQUIQUE- TEMUCO;39500;09-05-2016;22;Devengada;1704
980;2016;SRA;8537286-6;CLAUDIA LOPEZ ECHEVERRIA;REEMBOLSO;1745;09-05-2016;REEMBOLSO TRASLADO A S.FERNANDO- TEMUCO;18500;09-05-2016;22;Devengada;1705
981;2016;SRA;8983274-8;luis villazon leon;REEMBOLSO;1745;09-05-2016;REEMBOLSO TRASLADO A IQUIQUE;34000;09-05-2016;22;Devengada;1715
982;2016;SRA;16499443-0;DANIELA NAVARRETE HECKERSDORF;REEMBOLSO;1745;09-05-2016;REEMBOLSO TRASLADO A CHILOE- S.FERNANDO ;15600;09-05-2016;22;Devengada;1716
992;2016;SRA;56055280-7;COMUNIDAD EDIFICIO PLAZA MAC IVER ;GASTOS COMUNES;1636;04-05-2016;GASTO COMUNES MAC IVER Nº440 MES DE MARZO 2016  DEPTO CALIDAD Y FORMACION DIGEDEP;650471;04-05-2016;22;Devengada;1694
995;2016;SRA;9150163-5;CLAUDIA VALENZUELA AZOCAR;REEMBOLSO;1777;11-05-2016;REEMBOLSO TRASLADO A VIÑA DEL MAR;20456;11-05-2016;22;Devengada;1737
997;2016;SRA;99508950-5;TRANSPORTE PRIVADO ECOTRANS CHILE S.A;FACTURA;27922;28-04-2016;TRASLADO DE FUNCIONARIOS VALE RADIO TAXI;190760;29-04-2016;22;Devengada;1744
1408;2015;SRA;76302113-0;TRANSPORTES LOGISTICOS LIMITADA;Factura ;1113;22-07-2015;SERVICIO DE TRASLADO OFICINAS DE MONITOREO;803250;13-08-2015;22;Devuelto al proveedor;
1866;2015;SRA;96511350-9;HOTELERA Y TURISMO S.A.;Factura ;34371;19-10-2015;PRESENTACION PLANILLA DE CALCULO DE LA CAPACIDAD FORMADORA A DIRECTORES DE HOSPITALES DE ALTA COMPLEJIDAD;651673;23-10-2015;22;Devuelto al proveedor;
1982;2015;SRA;96511350-9;HOTELERA Y TURISMO S.A.;Factura ;34608;03-11-2015;PRESENTACION PLANILLA DE CALCULO DE LA CAPACIDAD FORMADORA A DIRECTORES DE HOSPITALES DE ALTA COMPLEJIDAD;651673;05-11-2015;22;Devuelto al proveedor;
26;2016;SRA;13038464-1;MARINA NATALIA ILABACA GALAZ;REEMBOLSO;7044;31-12-2015;REEMBOLSO DE PASAJES TRASLADO A CALAMA-ARICA;29800;31-12-2015;22;Devuelto al proveedor;
133;2016;SRA;6420984-1;CLARISA AGUILERA GUTIERREZ;FACTURA;3354;28-01-2016;SERVICIO DE IMPRESIÓN CERTIFICADOS;91767;11-02-2016;22;Devuelto al proveedor;
620;2016;SRA;76361893-5;INVERSIONES VESPUCCI ATACAMA SPA;FACTURA;7275;24-11-2015;HOTELES;389999;16-03-2016;22;Devuelto al proveedor;
729;2016;SRA;12241139-7;ALICIA CERDA LUCER;REEMBOLSO;1133;29-03-2016;TRASLADO A LA SERENA;7000;29-03-2016;22;Devuelto al proveedor;
736;2016;SRA;9196046-K;JORGE ALARCON VILLALOBOS;REEMBOLSO;1131;29-03-2016;TRASLADO A CALAMA  PTA ARENA Y LA SERENA;49700;29-03-2016;22;Devuelto al proveedor;
740;2016;SRA;16302886-7;CAROLINA NAVARRETE GUARDIA;REEMBOLSO;1131;29-03-2016;TRASLADO A PTA ARENAS;24200;29-03-2016;22;Devuelto al proveedor;
742;2016;SRA;14065538-4;ESTEBAN URIBE VALERIA;REEMBOLSO;1131;29-03-2016;TRASLADO A PTA ARENAS;24200;29-03-2016;22;Devuelto al proveedor;
743;2016;SRA;10246676-4;GERMAN SAEZ CABELLO;REEMBOLSO;1131;29-03-2016;TRASLADO A SAN ANTONIO Y PTA ARENAS;61200;29-03-2016;22;Devuelto al proveedor;
968;2016;SRA;5977723-8;XENIA BENAVIDES MANZONI;REEMBOLSO;1749;09-05-2016;REEMBOLSO TRASLADO A TEMUCO;20000;09-05-2016;;Devuelto al proveedor;
508;2016;SRA;96678350-8;TECHNO SYSTEMS CHILE LTDA ;FACTURA;4888;29-02-2016;SOLICITUD DE COMPRA REALIZADA POR JEFATURA DE RECURSOS FISICOS PARA LA UNIDAD DE EQUIPOS MEDICOS ;237648;07-03-2016;;Duplicidad en registro ;
509;2016;SRA;96678350-8;TECHNO SYSTEMS CHILE LTDA ;FACTURA ;4886;29-02-2016;SOLICITUD DE COMPRA REALIZADA POR JEFATURA DE RECURSOS FISICOS PARA LA UNIDAD DE EQUIPOS MEDICOS ;237648;07-03-2016;;Duplicidad en registro ;
165;2015;SRA;60503000-9;EMPRESA DE CORREOS DE CHILE                       ;Nota de Credito;1844;05-02-2015;ANULA Factura  Nº17674 DEL 2014;-195589;05-02-2015;22;;
166;2015;SRA;60503000-9;EMPRESA DE CORREOS DE CHILE                       ;Nota de Credito;1845;05-02-2015;ANULA Factura  Nº22264 DEL 2014;-344739;05-02-2015;22;;
315;2015;SRA;96800570-7;CHILECTRA S.A.                                    ;Boleta;126229331;21-01-2015;NO CONTABILIZAR  Factura  FUE CANCELADA POR EL ARRENDADOR;34650;23-02-2015;22;;
603;2015;SRA;96556930-8;SODEXO SOLUCIONES DE MOTIVACION CHILE S.A.        ;Nota de Credito;26661;01-04-2015;REBAJA O ANULA Factura  Nº31017;-1100000;09-04-2015;22;;
727;2015;SRA;78159800-3;INTEGRADORES DE TECNOLOGIA Y SISTEMAS S. A.       ;Factura ;3345;28-04-2015;CUOTA 14 DE 36 ARRIENDO 6 NOTEBOOK HP EN 36 MESES;248816;05-05-2015;22;;
806;2015;SRA;78703410-1;TELEFONICA EMPRESAS CHILE S.A.                    ;Nota de Credito;231706;16-04-2015;REBAJA Factura  Nº2996313 CON NOta de Credito Nº2317006;-253589;11-05-2015;22;;
807;2015;SRA;78703410-1;TELEFONICA EMPRESAS CHILE S.A.                    ;Nota de Credito;231705;16-04-2015;REBAJA Factura  Nº3044017 CON NOta de Credito Nº231705;-254987;11-05-2015;22;;
808;2015;SRA;78703410-1;TELEFONICA EMPRESAS CHILE S.A.                    ;Nota de Credito;231704;16-04-2015;REBAJA Factura  Nº3050410 CON NOta de Credito Nº231704;-254987;11-05-2015;22;;
1057;2015;SRA;76005173-K;INGENIERIA DE SOFTWARE PROACTIVEOFFICE Y CIA.     ;Factura ;691;19-06-2015;SISTEMA DE INFORMACION INYEGRAL DE PROYECTOS DE GESTION ;42913;22-06-2015;22;;
1179;2015;SRA;79588870-5;PETROBRAS CHILE DISTRIBUCION LIMITADA             ;Nota de Credito;12326;29-05-2015;GASOLINA 95 RM;-4781;09-07-2015;22;;
1214;2015;SRA;96689970-0;COMPUTACION INTEGRAL S.A.                         ;Nota de Credito;977;14-07-2015;REBAJA Factura  Nº4567;-2645;17-07-2015;22;;
1244;2015;SRA;77190880-2;SOCIEDAD IMPORTADORA OPTIVISION LIMITADA;Nota de Credito;874;04-06-2015;REBAJA Factura  Nº37000 CON NOta de Credito Nº874;-98960;22-07-2015;22;;
1323;2015;SRA;96711590-8;MANANTIAL S.A.;Factura ;2537638;30-06-2015;ARRIENDO DISPENSADOR;15365;04-08-2015;22;;
1346;2015;SRA;76005173-K;INGENIERIA DE SOFTWARE PROACTIVEOFFICE Y CIA.     ;Nota de Debito;1;04-08-2015;AUMENTA Factura  738;107;06-08-2015;22;;
1503;2015;SRA;89912300-K;INGENIERIA Y CONSTRUCCION RICARDO RODRIGUEZ Y CIA.LIMITADA;Nota de Credito;35900;18-08-2015;ANULA Factura  Nº736892 CON NOta de Credito Nº35900;-141643;27-08-2015;22;;
1539;2015;SRA;89912300-K;INGENIERIA Y CONSTRUCCION RICARDO RODRIGUEZ Y CIA.LIMITADA;Nota de Credito;35919;21-08-2015;REBAJA Factura  Nº735306 CON NOta de Credito Nº35919;-47214;01-09-2015;22;;
1741;2015;SRA;76302113-0;TRANSPORTES LOGISTICOS LIMITADA;Nota de Credito;116;30-09-2015;REBAJA Factura  Nº1048 CON NOta de Credito Nº116;-1;02-10-2015;22;;
1743;2015;SRA;76068574-7;MARCOTEC LIMITADA;Factura ;660;23-12-2014;ADQUISICION DE VIDEOPROTECTOR;1134728;02-10-2015;29;;
1790;2015;SRA;76293470-1;CARRASCO E HIJOS LIMITADA;Factura ;1830;21-09-2015;ADQUISICION DE PORTA DATA Y PORTA TV;52271;08-10-2015;22;;
1844;2015;SRA;79743490-6;COMERCIAL MAIFA LIMITADA                          ;Factura ;91642;29-07-2015;ALOJAMIENTO SR MARIOULLOA VIAJE QUE DEBERA ACOMPAÑAR ALA MINISTRA A CONCEPCION ;52439;20-10-2015;22;;
1974;2015;SRA;71540100-2;UNIVERSIDAD NACIONAL ANDRES BELLO ;Nota de Credito;3061;26-10-2015;ANULA Factura  Nº586 CON NOta de Credito Nº3061;-6000000;05-11-2015;22;;
2003;2015;SRA;79743490-6;COMERCIAL MAIFA LIMITADA                          ;Factura ;100006;11-04-2015;JORNADA MACROZONAL SUR PADB;2089589;06-11-2015;22;;
2101;2015;SRA;76086277-0;INVERSIONES MARIA CRISTINA CANCINO  REYES E.I.R.L.;Factura ;457;20-11-2015;JORNADA COMISIONES DE CARDIOLOGIA DE ALTA COMPLEJIDAD;162661;20-11-2015;22;;
2141;2015;SRA;76086277-0;INVERSIONES MARIA CRISTINA CANCINO  REYES E.I.R.L.;Factura ;464;26-11-2015;JORNADA DE INFORMACION PARA EGRESADOS DE MEDICINA;284658;26-11-2015;22;;
2164;2015;SRA;76086277-0;INVERSIONES MARIA CRISTINA CANCINO  REYES E.I.R.L.;Factura ;465;30-11-2015;JORNADA COMISIONES DE CARDIOLOGIA DE ALTA COMPLEJIDAD;162661;30-11-2015;22;;
2258;2015;SRA;76753070-6;CONSULTORES Y ASES. EN INFORMATICA ZEKE LTDA.     ;Factura ;1025;19-11-2015;SERVICIO DE HOSTING  MANTENCION Y SOPORTE LA PAGINA WEB;1926554;07-12-2015;22;;
2259;2015;SRA;76753070-6;CONSULTORES Y ASES. EN INFORMATICA ZEKE LTDA.     ;Factura ;1026;19-11-2015;SERVICIO DE HOSTING  MANTENCION Y SOPORTE LA PAGINA WEB;1926554;07-12-2015;22;;
2260;2015;SRA;76753070-6;CONSULTORES Y ASES. EN INFORMATICA ZEKE LTDA.     ;Factura ;1027;19-11-2015;SERVICIO DE HOSTING  MANTENCION Y SOPORTE LA PAGINA WEB;1926554;07-12-2015;22;;
2295;2015;SRA;76566908-1;FONOAUDIOLOGIA Y PSICOPEDAGOGIA EUGENIA ARAYA CASTILLO E.I.R.L;Nota de Credito;1;14-12-2015;ANULA Factura  N°1 CON NOta de Credito N°1;-4000000;15-12-2015;22;;
2381;2015;SRA;89504200-5;VALENTE IMPRESORES LIMITADA;Factura ;1006;21-12-2015;SERVICIO DE IMPRESIÓN DE DOCUEMTNOS REDES DE DERIVACION GES Y NO GES;7230678;22-12-2015;22;;
2402;2015;SRA;76254902-6;ADMINISTRADORA HOTELERA LA SERENA SPA;Factura ;9440;22-12-2015;JORNADA DE TRABAJO JEFES DE URGENCIA R.M.;3484941;24-12-2015;22;;
2427;2015;SRA;76450090-3;TECNOLOGIAS DE LA INFORMACION OPENAGORA S.A.      ;Factura ;2165;24-12-2015;CUOTA 22 DE 36 SISTEMA INFORMATICO DE APOYO A LA UNIDAD DE GESTION CENTRALIZADA DE CAMAS;4721944;28-12-2015;22;;
2432;2015;SRA;78178530-K;ROLAND VORWERK Y CIA. LIMITADA                    ;Nota de Credito;2031;29-12-2015;REBAJA Factura  Nº25202;-2485;30-12-2015;22;;
2442;2015;SRA;92580000-7;EMPRSA NACIONAL DE TELECOMUNICAIONES S.A.;Factura ;15558068;10-12-2015;SERVICIO DE CONTABILIDAD;678020606;30-12-2015;22;;
2506;2015;SRA;76395665-2;ARTEC SPA;Factura ;157;18-12-2015;MEMORANDUM N°52 EQUIPOS MEDICOS;100742;31-12-2015;22;;
2519;2015;SRA;92580000-7;EMPRESA NACIONAL DE TELECOMUNICACIONES S.A.;Nota de Credito;331560;12-01-2016;REBAJA FACTURA Nº15558068;-109541214;31-12-2015;22;;
13;2016;SRA;78973230-2;TRANSPORTES TRANSIBERICA LIMITADA;FACTURA;2714;31-12-2015;TRASLADO JORNANA DIGERA;400200;07-01-2016;;;
22;2016;SRA;92580000-7;EMPRESA NACIONAL DE TELECOMUNICACIONES S.A.;NOTA DE CREDITO ;331560;12-01-2016;REBAJA FACTURA N°15558068 CON NOTA DE CREDITO N°331560;-109541214;13-01-2016;;;
205;2016;SRA;78595300-2;HOSTERIA EL COPIHUE LIMITADA;FACTURA;123;26-02-2016;JORNADA DE PLANIFICACION DEL DEPTO DE RELACIONES LABORALES Y CALIDAD DE VIDA 2016. 03;4; Y 05 DE FEBRERO DE 2016;1815288;26-02-2016;
213;2016;SRA;89428000-k;AEROVIAS DAP S.A TRANSPORTE AEREO DE PASAJEROS Y CARGA ;FACTURA;12286;26-02-2016;TRATO DIRECTO CON AEROVIAS DAP TRASLADO DE 7 FUNCIONARIOS PTO. WILLIAMS Y PORVENIR DE ACUERDO A RES. EXENTO ;935000;29-02-2016;;;
214;2016;SRA;89428000-K;AEROVIAS DAP S.A TRANSPORTE AEREO DE PASAJEROS Y CARGA ;FACTURA;12287;26-02-2016;SRA.AUTORIZA TRATO DIRECTO CON AEROVIAS DAP   TRASLADO DE 7 FUNCIONARIOS PTO. WILLIAMS Y PORVENIR;110000;29-02-2016;;;
607;2016;SRA;78080940-K;AEROTRANSPORTES ARAUCANIA LIMITADA;FACTURA;262;09-03-2016;TRANSPORTE AEREOS ;6550000;09-03-2016;;;
642;2016;SRA;76082113-6;SOCIEDAD CONCESIONARIA SAN JOSE-TECNOCONTROL S.A ;FACTURA;88;18-01-2016;SERVICIO DE CONSTRUCCION DE PERIODO FEBRERO 2015 A MAYO 2015;86724581;17-03-2016;22;;
643;2016;SRA;76082113-6;SOCIEDAD CONCESIONARIA SAN JOSE-TECNOCONTROL S.A ;FACTURA;87;18-01-2016;SERVICIO DE CONSTRUCCION DE PERIODO FEBRERO 2015 A MAYO 2015;91210371;17-03-2016;22;;
665;2016;SRA;12983235-5;CRISTIAN SAEZ BURDILES;REEMBOLSO;989;18-03-2016;REEMBOLSO DE  CRISTIAN SAEZ BURDILES TRASLADO A LONDRES;18000;18-03-2016;Adm. de fondo -Picarte;;
667;2016;SRA;78080940-K;AEROTRANSPORTES ARAUCANIA LIMITADA;FACTURA;264;09-03-2016;TRASLADO A CONCEPCION;3750000;10-03-2016;;;
703;2016;SRA;99511100-4;HOTELERA SAN FRANCISCO S.A.                       ;FACTURA;20141;18-03-2016;JORNADA REFERENTES CLAUSTRO 14-15-16- DE MARZO;11392972;23-03-2016;;;
768;2016;SRA;99511100-4;HOTELERA SAN FRANCISCO S.A.                       ;FACTURA;20254;29-03-2016;JORNADA COMISION EVALUACION CONIS;10447407;04-04-2016;;;
770;2016;SRA;99511100-4;HOTELERA SAN FRANCISCO S.A.                       ;FACTURA;20238;29-03-2016;JORNADA REUNION  CON ASOCIADOS DE MUNICPALIDADES;630017;04-04-2016;;;
780;2016;SRA;78159800-3;INTEGRADORES DE TECNOLOGIA Y SISTEMAS SA;FACTURA;5482;30-03-2016;CUOTA 25 DE 36 ARRIENDO DE NOTEBOOK;248816;05-04-2016;;;
781;2016;SRA;78159800-3;INTEGRADORES DE TECNOLOGIA Y SISTEMAS SA;FACTURA;5502;31-03-2016;CUOTA 7 DE 36 ARRIENDO DE COMPUTADORES ALL IN ONE ;328561;05-04-2016;22;;
782;2016;SRA;78159800-3;INTEGRADORES DE TECNOLOGIA Y SISTEMAS SA;FACTURA;5493;30-03-2016;CUOTA 12 DE 36 ARRIENDO DE COMPUTADORES ;663888;05-04-2016;22;;
803;2016;SRA;53302641-9;FUNDFACION HENRY DUNANT AMERICA LATINA;FACTURA;252;08-04-2016;CAPACITACION OTORGA BECA CLAUDIA PADILLA;500000;08-04-2016;;;
808;2016;SRA;76005173-K;INGENIERIA DE SOFTWARE PROACTIVEOFFICE Y CIA. LTDA.;FACTURA;981;11-04-2016;CUOTA 9/ 12 LICENCIAS USUARIOS SISTEMAS INDICADORES;1194641;11-04-2016;;;
817;2015;SRA;61608700-2;CENTRAL DE ABASTECIMIENTO DEL SISTEMA NACIONAL DE SERVICIOS DE SALUD;FACTURA;21709;25-06-2015;SERVICIO COMISION SAFETY EXTRA RES-LUBRICANTE PROGRAMA CONASIDA;1128334;01-07-2015;;;
821;2016;SRA;96511350-9;HOTELERA Y TURISMO S.A.;FACTURA;38402;05-04-2016;JORNADA MACRO REGION CENTRO NORTE;990364;14-04-2016;;;
833;2016;SRA;76275218-2;INNOVA INVERSIONES SPA;FACTURA;83;15-04-2016;SERVICIO DE ESTADIA EN LA REGION DE LOS LAGOS;218413;15-04-2016;;;
842;2016;SRA;61608700-2;CENTRAL DE ABASTECIMIENTO DEL SISTEMA NACIONAL DE SERVICIOS DE SALUD;FACTURA;23860;29-07-2015;SERVICIO COMISION SAFETY EXTRA RES-LUBRICANTE PROGRAMA CONASIDA;646727;19-04-2016;;;
843;2016;SRA;61608700-2;CENTRAL DE ABASTECIMIENTO DEL SISTEMA NACIONAL DE SERVICIOS DE SALUD;NOTA DE CREDITO;1527;11-04-2016;REBAJA FACTURA N°23860 CON NOTA DE CREDITO N°1527;-252023;19-04-2016;;;
845;2016;SRA;78159800-3;INTEGRADORES DE TECNOLOGIA Y SISTEMAS S.A.;FACTURA;5602;14-04-2016;CUOTA 21 DE 36 ARRIENDO ALL IN ONE HP;578539;19-04-2016;;;
864;2016;SRA;96609940-2;IMPORTACIONES Y SERVICIOS ADVANCED COMPUTING TECHNOLOGIES S.A.;FACTURA;6270;29-02-2016;ARRIENDO DE COMPUTADRES PARA MANTENIMIENTO;161228;20-04-2016;;;
866;2016;SRA;61608700-2;CENTRAL DE ABASTECIMIENTO DEL SISTEMA NACIONAL DE SERVICIOS DE SALUD;FACTURA;90668;20-04-2016;SERVICIO LOGISTICO SET PARN;89905226;21-04-2016;24;;1480
867;2016;SRA;61608700-2;CENTRAL DE ABASTECIMIENTO DEL SISTEMA NACIONAL DE SERVICIOS DE SALUD;FACTURA;90669;20-04-2016;SERVICIO LOGISTICO SET PARN;82533027;21-04-2016;24;;1481
875;2016;SRA;96678350-8;TECHNO SYSTEMS CHILE LTDA ;NOTA DE CREDITO;189;19-01-2016;MODIFICA DETALLE DE FACTURA Nº4361; -   ;22-04-2016;22;;
878;2016;SRA;99511100-4;HOTELERA SAN FRANCISCO S.A.                       ;FACTURA;20556;13-04-2016;JORNADA MACRO REGIONAL CENTRO SUR;1902703;22-04-2016;;;
881;2016;SRA;76254902-6;ADMINISTRADORA HOTELERA LA SERENA SPA;FACTURA;10517;25-04-2016;JORNADA NACIONAL COMPONENTE ODONTOLOGICO;5384120;25-04-2016;;;
882;2016;SRA;76482497-0;BANQUETERIA NACIONAL SPA;FACTURA;356;25-04-2016;SERVICIO DE COFFE REUNION AGENTES PUBLICOS;247615;25-04-2016;;;
885;2016;SRA;96807120-3;INTER-CON SEGURITY;FACTURA;5892;25-04-2016;SERVICIO DE VIGILANCIA PARA LAS DEPENDENCIAS DEL MINSAL MES DE ABRIL 2016;4498329;26-04-2016;;;
886;2016;SRA;96851110-6;INDRA SISTEMAS CHILE S.A.                         ;FACTURA;48142;25-04-2016;COTAS 5  6 Y 7 (OCTUBRE  NOVIEMBRE Y DICIEMBRE) SERVCIO DE CONTINUIDAD DEL SISTEMA DE INFORMACION EN GESTION Y CALIDAD EN SALUD;49984430;26-04-2016;;;
887;2016;SRA;99511100-4;HOTELERA SAN FRANCISCO S.A.                       ;FACTURA;20675;19-04-2016;JORNADA DEPARTAMENTO DE ARQUITECTURA;1259382;26-04-2016;;;
888;2016;SRA;99511100-4;HOTELERA SAN FRANCISCO S.A.                       ;FACTURA;20519;11-04-2016;REUNION COMISION TECNICA MEDICOS EDF;762046;26-04-2016;;;
902;2016;SRA;70017820-K;CAMARA DE COMERCIO DE SANTIAGO A.G;FACTURA;81840;28-04-2016;JORNADA GABIENTE 25 DE ABRIL;471788;28-04-2016;;;
903;2016;SRA;96556940-5;PROVEEDORES INTEGRALES PRISA S.A;FACTURA;8941713;26-04-2016;ADQUISICION DE CARTUCHOS IMPRESORAS EPSON ;115601;28-04-2016;;;
906;2016;SRA;76341516-3;DISTRIBUIDORA Y COMECIALIZADORA J&R LIMITADA;FACTURA;569;29-04-2016;ADQUISICION DE BIDONES DE AGUA;90383;29-04-2016;;;
907;2016;SRA;78159800-3;INTEGRADORES DE TECNOLOGIA Y SISTEMAS S.A.;FACTURA;5695;28-04-2016;CUOTA 8 DE 36 ARRIENDO DE COMPUTADORES ;325345;29-04-2016;;;
908;2016;SRA;78159800-3;INTEGRADORES DE TECNOLOGIA Y SISTEMAS S.A.;FACTURA;5683;28-04-2016;CUOTA 13 DE 36 ARRIENDO DE COMPUTADORES MES ABRIL 2016;663888;29-04-2016;;;
909;2016;SRA;78159800-3;INTEGRADORES DE TECNOLOGIA Y SISTEMAS S.A.;FACTURA;5674;28-04-2016;CUOTA 26 DE 36 ARRIENDO DE COMPUTADORES MES ABRIL 2016;248816;29-04-2016;;;
910;2016;SRA;78159800-3;INTEGRADORES DE TECNOLOGIA Y SISTEMAS S.A.;FACTURA;5675;28-04-2016;CUOTA 22 DE 36 ARRIENDO DE COMPUTADORES MES ABRIL 2016;629248;29-04-2016;;;
912;2016;SRA;80116100-6;BLANCO VIAJES LTDA;FACTURA;432772;29-04-2016;ADQUISICION DE PASAJES AEREOS;11866326;02-05-2016;;;
913;2016;SRA;96851110-6;INDRA SISTEMAS CHILE S.A.                         ;NOTA DE CREDITO;1350;29-04-2016;ANULA FACTURA Nº42930;-16661477;02-05-2016;;;
914;2016;SRA;96851110-6;INDRA SISTEMAS CHILE S.A.                         ;NOTA DE CREDITO;1351;29-04-2016;ANULA FACTURA Nº42929;-16661477;02-05-2016;;;
915;2016;SRA;96851110-6;INDRA SISTEMAS CHILE S.A.                         ;NOTA DE CREDITO;1352;29-04-2016;ANULA FACTURA Nº42928;-165661477;02-05-2016;;;
916;2016;SRA;76295522-9;CENTRO DE ESTUDIOS FORMACION EN GESTION Y POLITICA LIMITADA;FACTURA;105;30-04-2016;TALLER DE PLANIFICACION ESTRATEGICA PRIORIDADES DE GESTION 2016-2018 EN EL MARCO RISS;1979158;02-05-2016;;;
917;2016;SRA;96678350-8;TECHNO SYSTEMS CHILE LTDA ;FACTURA;5469;29-04-2016;SERVICIO DE ARRIENDO MENSUAL DE EQUIPOS CUOTA 5 DE ABRIL 2016;237648;03-05-2016;;;
918;2016;SRA;76275218-2;INNOVA INVERSIONES SPA;FACTURA;91;02-05-2016;JORNADA DE TRABAJO DIVAP;2794996;03-05-2016;;;
919;2016;SRA;78312060-7;COMERCIALIZADORA INTEGRAL ;FACTURA;390601;03-05-2016;SERVICIO DE ARRIENDO MAQUINA FOTOCOPIADORA PARA SUBSECRETARIA DE REDES ASISTENCIALES ;78245;03-05-2016;;;
920;2016;SRA;89862200-2;LATAM AIRLINES GROUP S.A.;FACTURA;3004069;30-04-2016;ADQUISICION DE PASAJES AEREOS;50000;03-05-2016;;;
921;2016;SRA;89862200-2;LATAM AIRLINES GROUP S.A.;FACTURA;2227627;29-04-2016;ADQUISICION DE PASAJES AEREOS;26939;03-05-2016;;;
925;2016;SRA;79743490-6;COMERCIAL MAIFA LTDA;FACTURA;130334;03-05-2016;ALOJAMIENTO SRA SUBSECRETARIA DRA ANGELICA VERDUGO;191156;04-05-2016;;;
929;2016;SRA;89862200-2;LATAM AIRLINES GROUP S.A.;FACTURA;2607708;30-04-2016;ADQUISICION DE PASAJES AEREOS;5978867;04-05-2016;;;
932;2016;SRA;88417000-1;SKY AIRLINES;FACTURA;313249;30-04-2016;ADQUISICION DE PASAJES AEREOS;235420;05-05-2016;;;
933;2016;SRA;88417000-1;SKY AIRLINES;FACTURA;313250;30-04-2016;ADQUISICION DE PASAJES AEREOS;620012;05-05-2016;;;
934;2016;SRA;88417000-1;SKY AIRLINES;FACTURA;313251;30-04-2016;ADQUISICION DE PASAJES AEREOS;310006;05-05-2016;;;
935;2016;SRA;88417000-1;SKY AIRLINES;FACTURA;313252;30-04-2016;ADQUISICION DE PASAJES AEREOS;91510;05-05-2016;;;
936;2016;SRA;99502730-5;HOTEL TORREMAYOR S.A.;FACTURA;27467;25-04-2016;JORNADA DE PROGRAMA DE SALUD CARDIOVASCULAR ;8570039;05-05-2016;;;
942;2016;SRA;8558743-9;JORGE COSSIO CEA;REEMBOLSO;1660;05-05-2016;REEMBOLSO TRASLADO A OSORNO-SANTIAGO-OSORNO;63800;05-05-2016;22;;
943;2016;SRA;7208788-7;INGRID HEYYER VARGAS;REEMBOLSO;1658;05-05-2016;REEMBOLSO TRASLADO A PTO MONTT;14500;05-05-2016;;;
944;2016;SRA;15427053-3;PABLO CANALES NAVARRO ;REEMBOLSO;1658;05-05-2016;REEMBOLSO TRASLADO A CHILLAN- VIÑA DEL MAR;58118;05-05-2016;;;
955;2016;SRA;96678350-8;COMERCIAL TECHNOSYSTEMS CHILE LTDA;FACTURA;5637;06-05-2016;REQUERIEMIENTO DE LA UNIDAD DE EQUIPOS MEDICOS POR EL ARRIENDO DE 3 COMPUTADORES  EQUIPOS ARTEC ;232317;06-05-2016;;;
956;2016;SRA;78973230-2;TRANSPORTES TRANSIBERICA LIMITADA;FACTURA;3224;30-04-2016;SERVICIO DE TRASLADO DE MENORES Y CUERPO DOCENTE ;1299500;06-05-2016;;;
957;2016;SRA;96806840-7;OLIDATA COMPUTER STORE ;FACTURA;31382;06-05-2016;CUOTA 36 DE 36 MARZO 2016 ARRIENDO DE EQUIPOS COMPUTACIONALES Y SERVICIOS ASOCIADOS;193792870;06-05-2016;;;
958;2016;SRA;96806840-7;OLIDATA COMPUTER STORE ;FACTURA;31383;06-05-2016;CUOTA 27 DE 36 MES MARZO 2016 ARRIENDODE EQUIPAMIENTO  COMPUTACIONAL EN SS SEREMIS Y MINSAL ;10261510;06-05-2016;;;
959;2016;SRA;77495830-4;INVERSIONES Y RENTAS LOS CEDORS LIMITADA;FACTURA;77;05-05-2016;VUELO DE PROCURAMIENTO SANTIAGO-CONCEPCION-TEMUCO- AMBULANCIAS INCLUIDAS ;6292345;06-05-2016;;;
962;2016;SRA;9578239-6;ANA MARIA BARROUX ROJAS;REEMBOLSO;1747;09-05-2016;REEMBOLSO TRASLADO A PTO MONTT;19000;09-05-2016;22;;
964;2016;SRA;7684108-K;PAOLA MANTEROLA OLIVA;REEMBOLSO;1747;09-05-2016;REEMBOLSO TRASLADO A VIÑA DEL MAR-SAN FELIPE;20600;09-05-2016;22;;
965;2016;SRA;12871918-0;RENATO CALCAGNO SOTO;REEMBOLSO;1747;09-05-2016;REEMBOLSO TRASLADO A PTO MONTT-TEMUCO;24200;09-05-2016;22;;
969;2016;SRA;7954753-0;MANUEL SANHUEZA CASTRO;REEMBOLSO;1748;09-05-2016;REEMBOLSO TRASLADO A RANCAGUA;15666;09-05-2016;;;
970;2016;SRA;15649898-K;MARCO NISIN RIFFO;REEMBOLSO;1752;09-05-2016;REEMBOLSO TRASLADO A TEMUCO-STAGO-TEMUCO;19540;09-05-2016;;;
971;2016;SRA;9196046-K;JORGE ALARCON VILLALOBOS;REEMBOLSO;1752;09-05-2016;REEMBOLSO TRASLADO A COYHAIQUE;5000;09-05-2016;;;
972;2016;SRA;8286917-4;JARNOLDO URIBE GIL;REEMBOLSO;1752;09-05-2016;REEMBOLSO TRASLADO A PTA ARENAS- COYHAIQUE;29400;09-05-2016;;;
973;2016;SRA;14077649-1;ADRIAN PAILLAN LEAL;REEMBOLSO;1752;09-05-2016;REEMBOLSO TRASLADO A TEMUCO;18300;09-05-2016;;;
974;2016;SRA;16486835-4;FELIPE ESPINOZA LARREA;REEMBOLSO;1753;09-05-2016;REEMBOLSO TRASLADO A COYHAIQUE;5000;09-05-2016;;;
975;2016;SRA;9784129-2;DARIO LEIVA MATURANA;REEMBOLSO;1753;09-05-2016;REEMBOLSO TRASLADO A CHIMBARONGO-COPIAPO;32900;09-05-2016;;;
976;2016;SRA;14628881-2;JUAN CARLOS GARCIA;REEMBOLSO;1753;09-05-2016;REEMBOLSO TRASLADO A LA SERENA ;27680;09-05-2016;;;
977;2016;SRA;10463991-7;MARIO ULLOA QUIROZ;REEMBOLSO;1753;09-05-2016;REEMBOLSO TRASLADO A ARICA-TALCA-VALPARAISO;61868;09-05-2016;;;
978;2016;SRA;9698611-4;MARCELO CARVALLO CERONI;REEMBOLSO;1753;09-05-2016;REEMBOLSO TRASLADO A CURICO;32782;09-05-2016;;;
983;2016;SRA;96556940-5;PROVEEDORES INTEGRALES PRISA S.A;FACTURA;8961584;06-05-2016;ADQUISICION DE 6 CAJAS DE CORCHETES BOSTITCH;14437;09-05-2016;;;
984;2016;SRA;96502540-5;STUDEMANN S.A.;FACTURA;49741;05-05-2016;ARRIENDO DE EQUIPOS CORRESPONDIENTE PERIOSO DE MAYO 2016;229027;09-05-2016;;;
985;2016;SRA;77319960-4;COMERCIAL NUEVA COPIA LIMITADA;FACTURA;29584;02-05-2016;ARRIENDO DE MAQUINA FOTOCOPIADORA ;173095;09-05-2016;;;
986;2016;SRA;77319960-4;COMERCIAL NUEVA COPIA LIMITADA;FACTURA;29583;02-05-2016;ARRIENDO DE MAQUINA FOTOCOPIADORA ;197388;09-05-2016;;;
987;2016;SRA;77319960-4;COMERCIAL NUEVA COPIA LIMITADA;FACTURA;29582;02-05-2016;ARRIENDO DE MAQUINA FOTOCOPIADORA ;533635;09-05-2016;;;
988;2016;SRA;77319960-4;COMERCIAL NUEVA COPIA LIMITADA;FACTURA;29581;02-05-2016;ARRIENDO DE MAQUINA FOTOCOPIADORA ;296133;09-05-2016;;;
989;2016;SRA;77319960-4;COMERCIAL NUEVA COPIA LIMITADA;FACTURA;29580;02-05-2016;ARRIENDO DE MAQUINA FOTOCOPIADORA ;217570;09-05-2016;;;
990;2016;SRA;77319960-4;COMERCIAL NUEVA COPIA LIMITADA;FACTURA;29579;02-05-2016;ARRIENDO DE MAQUINA FOTOCOPIADORA ;986005;09-05-2016;;;
991;2016;SRA;77319960-4;COMERCIAL NUEVA COPIA LIMITADA;FACTURA;29578;02-05-2016;ARRIENDO DE MAQUINA FOTOCOPIADORA ;922953;09-05-2016;;;
993;2016;SRA;16558483-K;RODRIGO ANDRES ALDAY RODRIGUEZ;FACTURA;3308;10-05-2016;ADQUISICION DE TERMOS;69998;10-05-2016;;;
996;2016;SRA;76005173-K;INGENIERIA DE SOFTWARE PROACTIVEOFFICE Y CIA LTDA;FACTURA;1012;10-05-2016;RENOVACION DE LICENCIAS PROACTIVE OFFICE;1198598;11-05-2016;;;
